30534.553095,34629.222541,004.811500,2,2015,1,8,03-22-D1-00-00-00-00-00,S,-1
30534.562470,34629.231917,004.709868,2,1949,0,8,04-62-D1-00-01-00-00-00,S,-1
30538.968019,34633.638048,004.415506,2,2015,1,8,04-14-FF-FF-FF-00-00-00,S,-1
30538.971765,34633.641794,004.409877,2,1949,0,8,01-54-00-00-00-00-00-00,S,-1
30539.018015,34633.688043,000.049996,2,2015,1,8,04-14-FF-FF-FF-00-00-00,S,-1
30539.021765,34633.691793,000.050000,2,1949,0,8,01-54-00-00-00-00-00-00,S,-1
30543.705514,34638.375039,004.686995,2,2015,1,8,03-19-02-0A-00-00-00-00,S,-1
30543.712138,34638.381662,004.689869,2,1949,0,8,07-59-02-CA-E0-0A-16-0A,S,-1
30543.805523,34638.475048,000.100010,2,2015,1,8,06-19-06-C4-01-00-FF-00,S,-1
30543.812137,34638.481662,000.099999,2,1949,0,8,10-08-59-06-C4-01-00-40,S,-1
30543.855517,34638.525042,014.013999,2,1941,1,8,30-00-00-00-00-00-00-00,S,-1
30543.862273,34638.531798,000.050136,2,1949,0,8,21-10-00-00-00-00-00-00,S,-1
30549.913123,34644.582036,006.106987,2,2015,1,8,06-19-06-C4-01-00-10-00,S,-1
30549.922632,34644.591545,006.059747,2,1949,0,8,10-08-59-06-C4-01-00-0A,S,-1
30549.963137,34644.632050,006.107008,2,1941,1,8,30-00-00-00-00-00-00-00,S,-1
30549.972574,34644.641487,000.049942,2,1949,0,8,21-10-7F-00-00-00-00-00,S,-1
30555.632653,34650.300536,005.718500,2,2015,1,8,06-19-06-C4-01-00-FF-00,S,-1
30555.643659,34650.311542,005.670055,2,1949,0,8,10-0A-59-06-C4-01-00-0A,S,-1
30555.682659,34650.350542,005.718492,2,1941,1,8,30-00-00-00-00-00-00-00,S,-1
30555.693447,34650.361330,000.049788,2,1949,0,8,21-02-00-10-7F-00-00-00,S,-1
30560.264093,34654.932040,004.631504,2,2015,1,8,06-19-04-C4-01-00-10-00,S,-1
30560.273450,34654.941296,004.579966,2,1949,0,8,10-35-59-04-C4-01-00-0A,S,-1
30560.314191,34654.982036,004.631494,2,1941,1,8,30-00-00-00-00-00-00-00,S,-1
30560.323948,34654.991794,000.050498,2,1949,0,8,21-10-0A-DD-00-00-00-00,S,-1
30560.333456,34655.001301,000.009507,2,1949,0,8,22-00-20-10-3F-FE-1E-89,S,-1
30560.343436,34655.011281,000.009980,2,1949,0,8,23-3F-F8-2B-1F-00-00-00,S,-1
30560.353449,34655.021295,000.010013,2,1949,0,8,24-00-1E-61-00-00-D1-15,S,-1
30560.363686,34655.031532,000.010237,2,1949,0,8,25-00-00-21-10-00-00-21,S,-1
30560.373444,34655.041290,000.009758,2,1949,0,8,26-0D-00-00-FD-0D-06-62,S,-1
30560.383451,34655.051297,000.010007,2,1949,0,8,27-FD-06-00-00-00-00-00,S,-1
30567.386820,34662.054034,007.121994,2,2015,1,8,06-19-06-C4-01-00-10-00,S,-1
30567.393788,34662.061002,007.009706,2,1949,0,8,10-08-59-06-C4-01-00-0A,S,-1
30567.436837,34662.104052,007.122016,2,1941,1,8,30-00-00-00-00-00-00-00,S,-1
30567.443784,34662.110998,000.049996,2,1949,0,8,21-10-80-00-00-00-00-00,S,-1
30764.553587,34859.206046,197.152012,2,2015,1,8,06-19-06-C4-01-00-FF-00,S,-1
30764.557337,34859.209796,197.098798,2,1949,0,8,10-0A-59-06-C4-01-00-08,S,-1
30764.603573,34859.256032,197.151980,2,1941,1,8,30-00-00-00-00-00-00-00,S,-1
30764.607337,34859.259796,000.050000,2,1949,0,8,21-02-0A-10-80-00-00-00,S,-1
30963.392992,35058.030050,198.824004,2,2015,1,8,06-19-06-C4-01-00-FF-00,S,-1
30963.402736,35058.039794,198.779997,2,1949,0,8,10-0A-59-06-C4-01-00-08,S,-1
30963.442982,35058.080040,198.824008,2,1941,1,8,30-00-00-00-00-00-00-00,S,-1
30963.452725,35058.089783,000.049990,2,1949,0,8,21-02-14-10-80-00-00-00,S,-1
31162.432359,35257.055039,199.024988,2,2015,1,8,06-19-06-C4-01-00-FF-00,S,-1
31162.442099,35257.064779,198.974995,2,1949,0,8,10-0A-59-06-C4-01-00-08,S,-1
31162.482361,35257.105040,199.025001,2,1941,1,8,30-00-00-00-00-00-00-00,S,-1
31162.492095,35257.114775,000.049996,2,1949,0,8,21-02-1E-10-80-00-00-00,S,-1
31341.455292,35436.065033,179.009995,2,2015,1,8,06-19-06-C4-01-00-FF-00,S,-1
31341.460064,35436.069805,178.955030,2,1949,0,8,10-0A-59-06-C4-01-00-08,S,-1
31341.505298,35436.115039,179.009999,2,1941,1,8,30-00-00-00-00-00-00-00,S,-1
31341.510066,35436.119807,000.050002,2,1949,0,8,21-02-27-10-80-00-00-00,S,-1
31365.657138,35460.265546,024.200513,2,2015,1,8,06-19-06-C4-01-00-10-00,S,-1
31365.667960,35460.276368,024.156561,2,1949,0,8,10-08-59-06-C4-01-00-00,S,-1
31365.707130,35460.315538,024.200499,2,1941,1,8,30-00-00-00-00-00-00-00,S,-1
31365.717956,35460.326364,000.049996,2,1949,0,8,21-10-80-00-00-00-00-00,S,-1
31370.272672,35464.880550,004.615003,2,2015,1,8,06-19-04-C4-01-00-10-00,S,-1
31370.278358,35464.886236,004.559872,2,1949,0,8,06-59-04-C4-01-00-00-00,S,-1
31370.322662,35464.930539,004.615001,2,1941,1,8,30-00-00-00-00-00-00-00,S,-1
31374.308089,35468.915546,004.034996,2,2015,1,8,04-14-FF-FF-FF-00-00-00,S,-1
31374.318666,35468.926123,004.039888,2,1949,0,8,01-54-00-00-00-00-00-00,S,-1
31376.808298,35471.415537,002.499990,2,2015,1,8,06-19-06-C4-01-00-FF-00,S,-1
31376.818815,35471.426054,002.499931,2,1949,0,8,10-08-59-06-C4-01-00-00,S,-1
31376.908307,35471.515546,006.585006,2,1941,1,8,30-00-00-00-00-00-00-00,S,-1
31376.918814,35471.526053,000.099999,2,1949,0,8,21-10-00-00-00-00-00-00,S,-1
