9828.652547,13924.974547,004.610506,2,1941,1,8,03-22-D1-00-00-00-00-00,S,-1
9828.660869,13924.982869,004.609874,2,1949,0,8,04-62-D1-00-01-00-00-00,S,-1
9832.278046,13928.600046,003.625498,2,1941,1,8,04-14-FF-FF-FF-00-00-00,S,-1
9832.280786,13928.602786,003.619917,2,1949,0,8,01-54-00-00-00-00-00-00,S,-1
9832.328039,13928.650039,000.049993,2,1941,1,8,04-14-FF-FF-FF-00-00-00,S,-1
9832.330767,13928.652767,000.049981,2,1949,0,8,01-54-00-00-00-00-00-00,S,-1
9836.804545,13933.126545,004.476507,2,1941,1,8,03-19-02-0A-00-00-00-00,S,-1
9836.810645,13933.132645,004.479878,2,1949,0,8,07-59-02-CA-E0-0A-16-0A,S,-1
9836.904547,13933.226547,000.100002,2,1941,1,8,06-19-06-C1-00-00-FF-00,S,-1
9836.910641,13933.232641,000.099996,2,1949,0,8,10-08-59-06-C1-00-00-00,S,-1
9836.954549,13933.276549,000.050002,2,1941,1,8,30-00-00-00-00-00-00-00,S,-1
9836.960793,13933.282793,000.050152,2,1949,0,8,21-10-80-00-00-00-00-00,S,-1
9845.694537,13942.017537,008.740988,2,1941,1,8,03-19-02-0A-00-00-00-00,S,-1
9845.699531,13942.022531,008.739738,2,1949,0,8,10-0B-59-02-CA-C1-00-00,S,-1
9850.330032,13946.653032,004.635495,2,1941,1,8,06-19-06-C1-00-00-FF-00,S,-1
9850.339282,13946.662282,004.639751,2,1949,0,8,10-0A-59-06-C1-00-00-0A,S,-1
9850.380040,13946.703040,000.050008,2,1941,1,8,30-00-00-00-00-00-00-00,S,-1
9850.389268,13946.712268,000.049986,2,1949,0,8,21-02-00-10-7F-00-00-00,S,-1
9854.940534,13951.263534,004.560495,2,1941,1,8,06-19-04-C1-00-00-10-00,S,-1
9854.949142,13951.272142,004.559874,2,1949,0,8,10-35-59-04-C1-00-00-0A,S,-1
9854.990536,13951.313536,000.050002,2,1941,1,8,30-00-00-00-00-00-00-00,S,-1
9854.999534,13951.322534,000.050392,2,1949,0,8,21-10-0A-DD-00-00-00-00,S,-1
9855.009141,13951.332141,000.009607,2,1949,0,8,22-00-20-10-3F-FE-1E-89,S,-1
9855.019285,13951.342285,000.010143,2,1949,0,8,23-3F-F8-2B-1F-00-00-00,S,-1
9855.029140,13951.352140,000.009855,2,1949,0,8,24-00-1E-61-00-00-D1-15,S,-1
9855.039538,13951.362538,000.010398,2,1949,0,8,25-00-00-21-10-00-00-21,S,-1
9855.049142,13951.372142,000.009604,2,1949,0,8,26-0D-00-00-FD-0D-06-62,S,-1
9855.059289,13951.382289,000.010147,2,1949,0,8,27-FD-06-00-00-00-00-00,S,-1
9863.362547,13959.686047,008.372511,2,1941,1,8,06-19-06-C1-00-00-FF-00,S,-1
9863.368409,13959.691909,008.309620,2,1949,0,8,10-0A-59-06-C1-00-00-0A,S,-1
9863.412547,13959.736047,000.050000,2,1941,1,8,30-00-00-00-00-00-00-00,S,-1
9863.418411,13959.741911,000.050002,2,1949,0,8,21-02-00-10-80-00-00-00,S,-1
10042.399039,14138.727039,178.990992,2,1941,1,8,06-19-06-C1-00-00-FF-00,S,-1
10042.409843,14138.737843,178.995932,2,1949,0,8,10-0A-59-06-C1-00-00-08,S,-1
10042.449033,14138.777033,000.049994,2,1941,1,8,30-00-00-00-00-00-00-00,S,-1
10042.459845,14138.787845,000.050002,2,1949,0,8,21-02-0A-10-80-00-00-00,S,-1
10222.931047,14319.263047,180.486013,2,1941,1,8,06-19-06-C1-00-00-FF-00,S,-1
10222.937843,14319.269843,180.481998,2,1949,0,8,10-0A-59-06-C1-00-00-08,S,-1
10222.981051,14319.313051,000.050004,2,1941,1,8,30-00-00-00-00-00-00-00,S,-1
10222.987843,14319.319843,000.050000,2,1949,0,8,21-02-14-10-80-00-00-00,S,-1
10403.650039,14499.987039,180.673988,2,1941,1,8,06-19-06-C1-00-00-FF-00,S,-1
10403.656846,14499.993846,180.674002,2,1949,0,8,10-0A-59-06-C1-00-00-08,S,-1
10403.700031,14500.037031,000.049992,2,1941,1,8,30-00-00-00-00-00-00-00,S,-1
10403.706842,14500.043842,000.049996,2,1949,0,8,21-02-1E-10-80-00-00-00,S,-1
10566.170038,14662.511038,162.474007,2,1941,1,8,06-19-06-C1-00-00-FF-00,S,-1
10566.171860,14662.512860,162.469018,2,1949,0,8,10-0A-59-06-C1-00-00-08,S,-1
10566.220276,14662.561276,000.050238,2,1941,1,8,30-00-00-00-00-00-00-00,S,-1
10566.221854,14662.562854,000.049994,2,1949,0,8,21-02-27-10-80-00-00-00,S,-1
10587.577051,14683.919051,021.357775,2,1941,1,8,06-19-06-C1-00-00-FF-00,S,-1
10587.584878,14683.926878,021.364024,2,1949,0,8,10-08-59-06-C1-00-00-00,S,-1
10587.627050,14683.969050,000.050000,2,1941,1,8,30-00-00-00-00-00-00-00,S,-1
10587.634880,14683.976880,000.050002,2,1949,0,8,21-10-80-00-00-00-00-00,S,-1
10592.094536,14688.436536,004.467486,2,1941,1,8,06-19-04-C1-00-00-10-00,S,-1
10592.104756,14688.446756,004.469876,2,1949,0,8,06-59-04-C1-00-00-00-00,S,-1
10592.144541,14688.486541,000.050004,2,1941,1,8,30-00-00-00-00-00-00-00,S,-1
10596.660547,14693.002547,004.516007,2,1941,1,8,04-14-FF-FF-FF-00-00-00,S,-1
10596.664631,14693.006631,004.559875,2,1949,0,8,01-54-00-00-00-00-00-00,S,-1
10598.110045,14694.452545,001.449998,2,1941,1,8,06-19-06-C1-00-00-FF-00,S,-1
10598.114087,14694.456587,001.449956,2,1949,0,8,10-08-59-06-C1-00-00-00,S,-1
10598.160045,14694.502545,000.050000,2,1941,1,8,30-00-00-00-00-00-00-00,S,-1
10598.164089,14694.506589,000.050002,2,1949,0,8,21-10-80-00-00-00-00-00,S,-1
10602.635045,14698.977545,004.475001,2,1941,1,8,04-14-FF-FF-FF-00-00-00,S,-1
10602.643963,14698.986463,004.479874,2,1949,0,8,01-54-00-00-00-00-00-00,S,-1
10602.685042,14699.027542,000.049997,2,1941,1,8,04-14-FF-FF-FF-00-00-00,S,-1
10602.693964,14699.036464,000.050001,2,1949,0,8,01-54-00-00-00-00-00-00,S,-1
10608.253043,14704.595043,005.567501,2,1941,1,8,03-19-02-0A-00-00-00-00,S,-1
10608.254307,14704.596307,005.559843,2,1949,0,8,07-59-02-CA-E0-0A-16-0A,S,-1
10608.353042,14704.695042,000.099999,2,1941,1,8,06-19-06-C1-00-00-FF-00,S,-1
10608.354304,14704.696304,000.099997,2,1949,0,8,10-08-59-06-C1-00-00-00,S,-1
10608.403045,14704.745045,000.050004,2,1941,1,8,30-00-00-00-00-00-00-00,S,-1
10608.404302,14704.746302,000.049998,2,1949,0,8,21-10-80-00-00-00-00-00,S,-1
10617.172551,14713.515551,008.770506,2,1941,1,8,03-19-02-0A-00-00-00-00,S,-1
10617.183063,14713.526063,008.779761,2,1949,0,8,10-0B-59-02-CA-C1-00-00,S,-1
10621.797540,14718.140540,004.624989,2,1941,1,8,06-19-06-C1-00-00-FF-00,S,-1
10621.802936,14718.145936,004.619873,2,1949,0,8,10-0A-59-06-C1-00-00-0A,S,-1
10621.847538,14718.190538,000.049998,2,1941,1,8,30-00-00-00-00-00-00-00,S,-1
10621.852932,14718.195932,000.049996,2,1949,0,8,21-02-00-10-7F-00-00-00,S,-1
10626.409043,14722.752043,004.561506,2,1941,1,8,06-19-04-C1-00-00-10-00,S,-1
10626.412806,14722.755806,004.559874,2,1949,0,8,10-35-59-04-C1-00-00-0A,S,-1
10626.459037,14722.802037,000.049994,2,1941,1,8,30-00-00-00-00-00-00-00,S,-1
10626.462803,14722.805803,000.049998,2,1949,0,8,21-10-0A-DD-00-00-00-00,S,-1
10626.472803,14722.815803,000.010000,2,1949,0,8,22-00-20-10-3F-FE-1E-89,S,-1
10626.482805,14722.825805,000.010002,2,1949,0,8,23-3F-F8-2B-1F-00-00-00,S,-1
10626.492803,14722.835803,000.009998,2,1949,0,8,24-00-1E-61-00-00-D1-15,S,-1
10626.502802,14722.845802,000.010000,2,1949,0,8,25-00-00-21-10-00-00-21,S,-1
10626.512805,14722.855805,000.010002,2,1949,0,8,26-0D-00-00-FD-0D-06-62,S,-1
10626.522802,14722.865802,000.009998,2,1949,0,8,27-FD-06-00-00-00-00-00,S,-1
10632.833535,14729.176535,006.374498,2,1941,1,8,06-19-06-C1-00-00-FF-00,S,-1
10632.842629,14729.185629,006.319827,2,1949,0,8,10-0A-59-06-C1-00-00-0A,S,-1
10632.883539,14729.226539,000.050004,2,1941,1,8,30-00-00-00-00-00-00-00,S,-1
10632.892625,14729.235625,000.049996,2,1949,0,8,21-02-00-10-80-00-00-00,S,-1
10811.860036,14908.208036,178.981497,2,1941,1,8,06-19-06-C1-00-00-FF-00,S,-1
10811.863036,14908.211036,178.975412,2,1949,0,8,10-0A-59-06-C1-00-00-08,S,-1
10811.910034,14908.258034,000.049998,2,1941,1,8,30-00-00-00-00-00-00-00,S,-1
10811.913284,14908.261284,000.050248,2,1949,0,8,21-02-0A-10-80-00-00-00,S,-1
10992.381050,15088.733050,180.475016,2,1941,1,8,06-19-06-C1-00-00-FF-00,S,-1
10992.384844,15088.736844,180.475560,2,1949,0,8,10-0A-59-06-C1-00-00-08,S,-1
10992.431050,15088.783050,000.050000,2,1941,1,8,30-00-00-00-00-00-00-00,S,-1
10992.434846,15088.786846,000.050002,2,1949,0,8,21-02-14-10-80-00-00-00,S,-1
11173.000167,15269.357167,180.574117,2,1941,1,8,06-19-06-C1-00-00-FF-00,S,-1
11173.004847,15269.361847,180.575001,2,1949,0,8,10-0A-59-06-C1-00-00-08,S,-1
11173.050169,15269.407169,000.050002,2,1941,1,8,30-00-00-00-00-00-00-00,S,-1
11173.054841,15269.411841,000.049994,2,1949,0,8,21-02-1E-10-80-00-00-00,S,-1
11335.620274,15431.981274,162.574105,2,1941,1,8,06-19-06-C1-00-00-FF-00,S,-1
11335.630033,15431.991033,162.579192,2,1949,0,8,10-0A-59-06-C1-00-00-08,S,-1
11335.670037,15432.031037,000.049764,2,1941,1,8,30-00-00-00-00-00-00-00,S,-1
11335.680273,15432.041273,000.050240,2,1949,0,8,21-02-27-10-80-00-00-00,S,-1
11357.227036,15453.589036,021.557999,2,1941,1,8,06-19-06-C1-00-00-FF-00,S,-1
11357.231880,15453.593880,021.552608,2,1949,0,8,10-08-59-06-C1-00-00-00,S,-1
11357.277039,15453.639039,000.050002,2,1941,1,8,30-00-00-00-00-00-00-00,S,-1
11357.281883,15453.643883,000.050002,2,1949,0,8,21-10-80-00-00-00-00-00,S,-1
11361.544550,15457.906550,004.267512,2,1941,1,8,06-19-04-C1-00-00-10-00,S,-1
11361.551760,15457.913760,004.269877,2,1949,0,8,06-59-04-C1-00-00-00-00,S,-1
11361.594536,15457.956536,000.049986,2,1941,1,8,30-00-00-00-00-00-00-00,S,-1
11366.061545,15462.423545,004.467008,2,1941,1,8,04-14-FF-FF-FF-00-00-00,S,-1
11366.071638,15462.433638,004.519878,2,1949,0,8,01-54-00-00-00-00-00-00,S,-1
11367.611548,15463.973548,001.550003,2,1941,1,8,06-19-06-C1-00-00-FF-00,S,-1
11367.621593,15463.983593,001.549955,2,1949,0,8,10-08-59-06-C1-00-00-00,S,-1
11367.661536,15464.023536,000.049988,2,1941,1,8,30-00-00-00-00-00-00-00,S,-1
11367.671592,15464.033592,000.049998,2,1949,0,8,21-10-80-00-00-00-00-00,S,-1
11372.278049,15468.640049,004.616513,2,1941,1,8,04-14-FF-FF-FF-00-00-00,S,-1
11372.281465,15468.643465,004.609873,2,1949,0,8,01-54-00-00-00-00-00-00,S,-1
11372.328041,15468.690041,000.049992,2,1941,1,8,04-14-FF-FF-FF-00-00-00,S,-1
11372.331461,15468.693461,000.049996,2,1949,0,8,01-54-00-00-00-00-00-00,S,-1
11376.894037,15473.256037,004.565996,2,1941,1,8,03-19-02-0A-00-00-00-00,S,-1
11376.901339,15473.263339,004.569877,2,1949,0,8,07-59-02-CA-E0-0A-16-0A,S,-1
11376.994035,15473.356035,000.099998,2,1941,1,8,06-19-06-C1-00-00-FF-00,S,-1
11377.001332,15473.363332,000.099994,2,1949,0,8,10-08-59-06-C1-00-00-00,S,-1
11377.044040,15473.406040,000.050006,2,1941,1,8,30-00-00-00-00-00-00-00,S,-1
11377.051334,15473.413334,000.050002,2,1949,0,8,21-10-80-00-00-00-00-00,S,-1
11386.815039,15483.177039,009.770999,2,1941,1,8,03-19-02-0A-00-00-00-00,S,-1
11386.821061,15483.183061,009.769727,2,1949,0,8,10-0B-59-02-CA-C1-00-00,S,-1
11391.330031,15487.693031,004.515992,2,1941,1,8,06-19-06-C1-00-00-FF-00,S,-1
11391.339935,15487.702935,004.519874,2,1949,0,8,10-0A-59-06-C1-00-00-0A,S,-1
11391.380032,15487.743032,000.050001,2,1941,1,8,30-00-00-00-00-00-00-00,S,-1
11391.389937,15487.752937,000.050002,2,1949,0,8,21-02-00-10-7F-00-00-00,S,-1
11397.161039,15493.524039,005.781007,2,1941,1,8,06-19-04-C1-00-00-10-00,S,-1
11397.169774,15493.532774,005.779837,2,1949,0,8,10-35-59-04-C1-00-00-0A,S,-1
11397.211041,15493.574041,000.050002,2,1941,1,8,30-00-00-00-00-00-00-00,S,-1
11397.219773,15493.582773,000.049998,2,1949,0,8,21-10-0A-DD-00-00-00-00,S,-1
11397.229772,15493.592772,000.010000,2,1949,0,8,22-00-20-10-3F-FE-1E-89,S,-1
11397.239801,15493.602801,000.010029,2,1949,0,8,23-3F-F8-2B-1F-00-00-00,S,-1
11397.249771,15493.612771,000.009969,2,1949,0,8,24-00-1E-61-00-00-D1-15,S,-1
11397.259771,15493.622771,000.010000,2,1949,0,8,25-00-00-21-10-00-00-21,S,-1
11397.269775,15493.632775,000.010003,2,1949,0,8,26-0D-00-00-FD-0D-06-61,S,-1
11397.279770,15493.642770,000.009996,2,1949,0,8,27-FD-06-00-00-00-00-00,S,-1
11403.788548,15500.151548,006.577507,2,1941,1,8,06-19-06-C1-00-00-FF-00,S,-1
11403.799590,15500.162590,006.519820,2,1949,0,8,10-0A-59-06-C1-00-00-0A,S,-1
11403.838534,15500.201534,000.049986,2,1941,1,8,30-00-00-00-00-00-00-00,S,-1
11403.849590,15500.212590,000.050000,2,1949,0,8,21-02-00-10-80-00-00-00,S,-1
11582.824532,15679.192532,178.990998,2,1941,1,8,06-19-06-C1-00-00-FF-00,S,-1
11582.835347,15679.203347,178.990758,2,1949,0,8,10-0A-59-06-C1-00-00-08,S,-1
11582.874544,15679.242544,000.050012,2,1941,1,8,30-00-00-00-00-00-00-00,S,-1
11582.885343,15679.253343,000.049996,2,1949,0,8,21-02-0A-10-80-00-00-00,S,-1
11763.544033,15859.916033,180.673489,2,1941,1,8,06-19-06-C1-00-00-FF-00,S,-1
11763.554843,15859.926843,180.673500,2,1949,0,8,10-0A-59-06-C1-00-00-08,S,-1
11763.594039,15859.966039,000.050006,2,1941,1,8,30-00-00-00-00-00-00-00,S,-1
11763.604843,15859.976843,000.050000,2,1949,0,8,21-02-14-10-80-00-00-00,S,-1
11944.264536,16040.641536,180.675496,2,1941,1,8,06-19-06-C1-00-00-FF-00,S,-1
11944.266346,16040.643346,180.666503,2,1949,0,8,10-0A-59-06-C1-00-00-08,S,-1
11944.314542,16040.691542,000.050006,2,1941,1,8,30-00-00-00-00-00-00-00,S,-1
11944.316340,16040.693340,000.049994,2,1949,0,8,21-02-1E-10-80-00-00-00,S,-1
12106.883535,16203.264535,162.572993,2,1941,1,8,06-19-06-C1-00-00-FF-00,S,-1
12106.890359,16203.271359,162.578019,2,1949,0,8,10-0A-59-06-C1-00-00-08,S,-1
12106.933545,16203.314545,000.050010,2,1941,1,8,30-00-00-00-00-00-00-00,S,-1
12106.940359,16203.321359,000.050000,2,1949,0,8,21-02-27-10-80-00-00-00,S,-1
12127.687039,16224.069039,020.754494,2,1941,1,8,06-19-06-C1-00-00-FF-00,S,-1
12127.689038,16224.071038,020.749679,2,1949,0,8,10-08-59-06-C1-00-00-00,S,-1
12127.737041,16224.119041,000.050002,2,1941,1,8,30-00-00-00-00-00-00-00,S,-1
12127.739290,16224.121290,000.050252,2,1949,0,8,21-10-80-00-00-00-00-00,S,-1
12132.205535,16228.587535,004.468494,2,1941,1,8,06-19-04-C1-00-00-10-00,S,-1
12132.209039,16228.591039,004.469750,2,1949,0,8,06-59-04-C1-00-00-00-00,S,-1
12132.255539,16228.637539,000.050004,2,1941,1,8,30-00-00-00-00-00-00-00,S,-1
12136.733034,16233.115034,004.477495,2,1941,1,8,04-14-FF-FF-FF-00-00-00,S,-1
12136.739283,16233.121283,004.530244,2,1949,0,8,01-54-00-00-00-00-00-00,S,-1
12138.483051,16234.865051,001.750017,2,1941,1,8,06-19-06-C1-00-00-FF-00,S,-1
12138.489041,16234.871041,001.749757,2,1949,0,8,10-08-59-06-C1-00-00-00,S,-1
12138.533035,16234.915035,000.049984,2,1941,1,8,30-00-00-00-00-00-00-00,S,-1
12138.539291,16234.921291,000.050250,2,1949,0,8,21-10-80-00-00-00-00-00,S,-1
12147.546039,16243.928039,009.013004,2,1941,1,8,03-19-02-0A-00-00-00-00,S,-1
12147.548329,16243.930329,009.009039,2,1949,0,8,10-0B-59-02-CA-C1-00-00,S,-1
12152.071046,16248.453046,004.525008,2,1941,1,8,06-19-06-C1-00-00-FF-00,S,-1
12152.078203,16248.460203,004.529873,2,1949,0,8,10-0A-59-06-C1-00-00-0A,S,-1
12152.121043,16248.503043,000.049996,2,1941,1,8,30-00-00-00-00-00-00-00,S,-1
12152.128205,16248.510205,000.050002,2,1949,0,8,21-02-00-10-7F-00-00-00,S,-1
12156.691539,16253.073539,004.570496,2,1941,1,8,06-19-04-C1-00-00-10-00,S,-1
12156.698076,16253.080076,004.569870,2,1949,0,8,10-35-59-04-C1-00-00-0A,S,-1
12156.741538,16253.123538,000.049998,2,1941,1,8,30-00-00-00-00-00-00-00,S,-1
12156.748078,16253.130078,000.050002,2,1949,0,8,21-10-0A-DD-00-00-00-00,S,-1
12156.758074,16253.140074,000.009996,2,1949,0,8,22-00-20-10-3F-FE-1E-89,S,-1
12156.768074,16253.150074,000.010000,2,1949,0,8,23-3F-F8-2B-1F-00-00-00,S,-1
12156.778076,16253.160076,000.010002,2,1949,0,8,24-00-1E-61-00-00-D1-15,S,-1
12156.788073,16253.170073,000.009996,2,1949,0,8,25-00-00-21-10-00-00-21,S,-1
12156.798073,16253.180073,000.010000,2,1949,0,8,26-0D-00-00-FD-0D-06-65,S,-1
12156.808075,16253.190075,000.010002,2,1949,0,8,27-FD-06-00-00-00-00-00,S,-1
12163.312216,16259.695216,006.571679,2,1941,1,8,06-19-06-C1-00-00-FF-00,S,-1
12163.316895,16259.699895,006.509820,2,1949,0,8,10-0A-59-06-C1-00-00-0A,S,-1
12163.362218,16259.745218,000.050002,2,1941,1,8,30-00-00-00-00-00-00-00,S,-1
12163.366891,16259.749891,000.049996,2,1949,0,8,21-02-00-10-80-00-00-00,S,-1
12342.148540,16438.535540,178.790321,2,1941,1,8,06-19-06-C1-00-00-FF-00,S,-1
12342.156347,16438.543347,178.793457,2,1949,0,8,10-0A-59-06-C1-00-00-08,S,-1
12342.198532,16438.585532,000.049992,2,1941,1,8,30-00-00-00-00-00-00-00,S,-1
12342.206342,16438.593342,000.049994,2,1949,0,8,21-02-0A-10-80-00-00-00,S,-1
12522.666543,16619.058543,180.473011,2,1941,1,8,06-19-06-C1-00-00-FF-00,S,-1
12522.674345,16619.066345,180.473003,2,1949,0,8,10-0A-59-06-C1-00-00-08,S,-1
12522.716539,16619.108539,000.049996,2,1941,1,8,30-00-00-00-00-00-00-00,S,-1
12522.724343,16619.116343,000.049998,2,1949,0,8,21-02-14-10-80-00-00-00,S,-1
12703.288551,16799.684551,180.576012,2,1941,1,8,06-19-06-C1-00-00-FF-00,S,-1
12703.297342,16799.693342,180.576999,2,1949,0,8,10-0A-59-06-C1-00-00-08,S,-1
12703.338539,16799.734539,000.049988,2,1941,1,8,30-00-00-00-00-00-00-00,S,-1
12703.347344,16799.743344,000.050002,2,1949,0,8,21-02-1E-10-80-00-00-00,S,-1
12865.907039,16962.307539,162.573000,2,1941,1,8,06-19-06-C1-00-00-FF-00,S,-1
12865.910859,16962.311359,162.568015,2,1949,0,8,10-0A-59-06-C1-00-00-08,S,-1
12865.957033,16962.357533,000.049994,2,1941,1,8,30-00-00-00-00-00-00-00,S,-1
12865.960859,16962.361359,000.050000,2,1949,0,8,21-02-27-10-80-00-00-00,S,-1
12887.516532,16983.917532,021.559999,2,1941,1,8,06-19-06-C1-00-00-FF-00,S,-1
12887.526380,16983.927380,021.566021,2,1949,0,8,10-08-59-06-C1-00-00-00,S,-1
12887.566534,16983.967534,000.050002,2,1941,1,8,30-00-00-00-00-00-00-00,S,-1
12887.576378,16983.977378,000.049998,2,1949,0,8,21-10-80-00-00-00-00-00,S,-1
12892.034048,16988.435048,004.467514,2,1941,1,8,06-19-04-C1-00-00-10-00,S,-1
12892.036257,16988.437257,004.459879,2,1949,0,8,06-59-04-C1-00-00-00-00,S,-1
12892.084046,16988.485046,000.049998,2,1941,1,8,30-00-00-00-00-00-00-00,S,-1
12896.551542,16992.952542,004.467495,2,1941,1,8,04-14-FF-FF-FF-00-00-00,S,-1
12896.556130,16992.957130,004.519873,2,1949,0,8,01-54-00-00-00-00-00-00,S,-1
12898.301542,16994.702542,001.750000,2,1941,1,8,06-19-06-C1-00-00-FF-00,S,-1
12898.306084,16994.707084,001.749954,2,1949,0,8,10-08-59-06-C1-00-00-00,S,-1
12898.351536,16994.752536,000.049994,2,1941,1,8,30-00-00-00-00-00-00-00,S,-1
12898.356080,16994.757080,000.049996,2,1949,0,8,21-10-80-00-00-00-00-00,S,-1
