5598.885539,9695.097539,005.211001,2,1941,1,8,03-22-D1-00-00-00-00-00,S,-1
5598.887887,9695.099887,005.209855,2,1949,0,8,04-62-D1-00-01-00-00-00,S,-1
5602.501542,9698.713542,003.616002,2,1941,1,8,04-14-FF-FF-FF-00-00-00,S,-1
5602.507788,9698.719788,003.619901,2,1949,0,8,01-54-00-00-00-00-00-00,S,-1
5602.551537,9698.763537,000.049996,2,1941,1,8,04-14-FF-FF-FF-00-00-00,S,-1
5602.557790,9698.769790,000.050002,2,1949,0,8,01-54-00-00-00-00-00-00,S,-1
5607.007041,9703.220041,004.456503,2,1941,1,8,03-19-02-0A-00-00-00-00,S,-1
5607.016665,9703.229665,004.459875,2,1949,0,8,07-59-02-CA-E0-0A-16-0A,S,-1
5607.107040,9703.320040,000.100000,2,1941,1,8,06-19-06-17-3A-17-FF-00,S,-1
5607.116664,9703.329664,000.100000,2,1949,0,8,10-08-59-06-17-3A-17-40,S,-1
5607.157047,9703.370047,000.050006,2,1941,1,8,30-00-00-00-00-00-00-00,S,-1
5607.166659,9703.379659,000.049995,2,1949,0,8,21-10-00-00-00-00-00-00,S,-1
5613.224037,9709.437037,006.066990,2,1941,1,8,06-19-06-17-3A-17-10-00,S,-1
5613.226493,9709.439493,006.059834,2,1949,0,8,10-08-59-06-17-3A-17-0A,S,-1
5613.274038,9709.487038,000.050002,2,1941,1,8,30-00-00-00-00-00-00-00,S,-1
5613.276493,9709.489493,000.050000,2,1949,0,8,21-10-7F-00-00-00-00-00,S,-1
5618.933038,9715.146038,005.658999,2,1941,1,8,06-19-06-17-3A-17-FF-00,S,-1
5618.936340,9715.149340,005.659847,2,1949,0,8,10-0A-59-06-17-3A-17-0A,S,-1
5618.983036,9715.196036,000.049998,2,1941,1,8,30-00-00-00-00-00-00-00,S,-1
5618.986334,9715.199334,000.049994,2,1949,0,8,21-02-00-10-7F-00-00-00,S,-1
5623.644535,9719.857535,004.661500,2,1941,1,8,06-19-04-17-3A-17-10-00,S,-1
5623.646210,9719.859210,004.659876,2,1949,0,8,10-35-59-04-17-3A-17-0A,S,-1
5623.694545,9719.907545,000.050010,2,1941,1,8,30-00-00-00-00-00-00-00,S,-1
5623.696206,9719.909206,000.049996,2,1949,0,8,21-10-0A-DD-00-00-00-00,S,-1
5623.706208,9719.919208,000.010002,2,1949,0,8,22-00-20-10-3F-FE-1E-89,S,-1
5623.716206,9719.929206,000.009998,2,1949,0,8,23-3F-F8-2B-1F-00-00-00,S,-1
5623.726206,9719.939206,000.010000,2,1949,0,8,24-00-1E-61-00-00-D1-15,S,-1
5623.736208,9719.949208,000.010002,2,1949,0,8,25-00-00-21-10-00-00-21,S,-1
5623.746204,9719.959204,000.009996,2,1949,0,8,26-0D-00-00-FD-0D-06-63,S,-1
5623.756204,9719.969204,000.010000,2,1949,0,8,27-FD-06-00-00-00-00-00,S,-1
5630.558277,9726.771277,006.863732,2,1941,1,8,06-19-06-17-3A-17-10-00,S,-1
5630.566018,9726.779018,006.809813,2,1949,0,8,10-08-59-06-17-3A-17-0A,S,-1
5630.608272,9726.821272,000.049994,2,1941,1,8,30-00-00-00-00-00-00-00,S,-1
5630.616016,9726.829016,000.049998,2,1949,0,8,21-10-80-00-00-00-00-00,S,-1
5827.693545,9923.911545,197.090273,2,1941,1,8,06-19-06-17-3A-17-FF-00,S,-1
5827.698219,9923.916219,197.087204,2,1949,0,8,10-0A-59-06-17-3A-17-08,S,-1
5827.743535,9923.961535,000.049990,2,1941,1,8,30-00-00-00-00-00-00-00,S,-1
5827.748217,9923.966217,000.049998,2,1949,0,8,21-02-0A-10-80-00-00-00,S,-1
6026.512548,10122.736548,198.775013,2,1941,1,8,06-19-06-17-3A-17-FF-00,S,-1
6026.523220,10122.747220,198.781002,2,1949,0,8,10-0A-59-06-17-3A-17-08,S,-1
6026.562546,10122.786546,000.049998,2,1941,1,8,30-00-00-00-00-00-00-00,S,-1
6026.573216,10122.797216,000.049996,2,1949,0,8,21-02-14-10-80-00-00-00,S,-1
6225.224536,10321.453536,198.666990,2,1941,1,8,06-19-06-17-3A-17-FF-00,S,-1
6225.235218,10321.464218,198.667002,2,1949,0,8,10-0A-59-06-17-3A-17-08,S,-1
6225.274539,10321.503539,000.050002,2,1941,1,8,30-00-00-00-00-00-00-00,S,-1
6225.285216,10321.514216,000.049998,2,1949,0,8,21-02-1E-10-80-00-00-00,S,-1
6403.739541,10499.973541,178.470002,2,1941,1,8,06-19-06-17-3A-17-FF-00,S,-1
6403.745251,10499.979251,178.465035,2,1949,0,8,10-0A-59-06-17-3A-17-08,S,-1
6403.789529,10500.023529,000.049988,2,1941,1,8,30-00-00-00-00-00-00-00,S,-1
6403.795247,10500.029247,000.049996,2,1949,0,8,21-02-27-10-80-00-00-00,S,-1
6427.839039,10524.073039,024.049510,2,1941,1,8,06-19-06-17-3A-17-10-00,S,-1
6427.840805,10524.074805,024.045558,2,1949,0,8,10-08-59-06-17-3A-17-00,S,-1
6427.889047,10524.123047,000.050008,2,1941,1,8,30-00-00-00-00-00-00-00,S,-1
6427.890807,10524.124807,000.050002,2,1949,0,8,21-10-80-00-00-00-00-00,S,-1
6432.455042,10528.689042,004.565995,2,1941,1,8,06-19-04-17-3A-17-10-00,S,-1
6432.460678,10528.694678,004.569870,2,1949,0,8,06-59-04-17-3A-17-00-00,S,-1
6432.505032,10528.739032,000.049991,2,1941,1,8,30-00-00-00-00-00-00-00,S,-1
6436.473033,10532.707033,003.968001,2,1941,1,8,04-14-FF-FF-FF-00-00-00,S,-1
6436.480569,10532.714569,004.019891,2,1949,0,8,01-54-00-00-00-00-00-00,S,-1
6438.972537,10535.207037,002.500004,2,1941,1,8,06-19-06-17-3A-17-FF-00,S,-1
6438.979999,10535.214499,002.499930,2,1949,0,8,10-08-59-06-17-3A-17-00,S,-1
6439.072547,10535.307047,000.100010,2,1941,1,8,30-00-00-00-00-00-00-00,S,-1
6439.079999,10535.314499,000.100000,2,1949,0,8,21-10-00-00-00-00-00-00,S,-1
