24614.543604,28709.654030,004.708486,2,2015,1,8,03-22-D1-00-00-00-00-00,S,-1
24614.546051,28709.656477,004.599872,2,1949,0,8,04-62-D1-00-01-00-00-00,S,-1
24618.171439,28713.281546,003.627516,2,2015,1,8,04-14-FF-FF-FF-00-00-00,S,-1
24618.176269,28713.286376,003.629900,2,1949,0,8,01-54-00-00-00-00-00-00,S,-1
24618.221428,28713.331535,000.049989,2,2015,1,8,04-14-FF-FF-FF-00-00-00,S,-1
24618.226266,28713.336373,000.049997,2,1949,0,8,01-54-00-00-00-00-00-00,S,-1
24622.696955,28717.806534,004.474999,2,2015,1,8,03-19-02-0A-00-00-00-00,S,-1
24622.706672,28717.816250,004.479877,2,1949,0,8,07-59-02-CA-E0-0A-16-0A,S,-1
24622.796960,28717.906539,000.100005,2,2015,1,8,06-19-06-09-32-17-FF-00,S,-1
24622.806671,28717.916249,000.099999,2,1949,0,8,10-08-59-06-09-32-17-40,S,-1
24622.846966,28717.956545,012.911012,2,1941,1,8,30-00-00-00-00-00-00-00,S,-1
24622.856667,28717.966245,000.049996,2,1949,0,8,21-10-00-00-00-00-00-00,S,-1
24628.904097,28724.013030,006.106491,2,2015,1,8,06-19-06-09-32-17-10-00,S,-1
24628.907144,28724.016076,006.049831,2,1949,0,8,10-08-59-06-09-32-17-0A,S,-1
24628.954105,28724.063037,006.106493,2,1941,1,8,30-00-00-00-00-00-00-00,S,-1
24628.957146,28724.066078,000.050002,2,1949,0,8,21-10-7F-00-00-00-00-00,S,-1
24632.623423,28727.732038,003.719008,2,2015,1,8,06-19-06-09-32-17-FF-00,S,-1
24632.627358,28727.735972,003.669894,2,1949,0,8,10-0A-59-06-09-32-17-0A,S,-1
24632.673419,28727.782034,003.718996,2,1941,1,8,30-00-00-00-00-00-00-00,S,-1
24632.677360,28727.785974,000.050002,2,1949,0,8,21-02-00-10-7F-00-00-00,S,-1
24637.244845,28732.352546,004.620509,2,2015,1,8,06-19-04-09-32-17-10-00,S,-1
24637.248141,28732.355843,004.569869,2,1949,0,8,10-35-59-04-09-32-17-0A,S,-1
24637.293453,28732.402545,004.620511,2,1941,1,8,30-00-00-00-00-00-00-00,S,-1
24637.296754,28732.405845,000.050002,2,1949,0,8,21-10-0A-DD-00-00-00-00,S,-1
24637.306750,28732.415841,000.009996,2,1949,0,8,22-00-20-10-3F-FE-1E-89,S,-1
24637.316750,28732.425841,000.010000,2,1949,0,8,23-3F-F8-2B-1F-00-00-00,S,-1
24637.326753,28732.435845,000.010004,2,1949,0,8,24-00-1E-61-00-00-D1-15,S,-1
24637.336749,28732.445841,000.009996,2,1949,0,8,25-00-00-21-10-00-00-21,S,-1
24637.346749,28732.455840,000.010000,2,1949,0,8,26-0D-00-00-FD-0D-06-64,S,-1
24637.356751,28732.465843,000.010002,2,1949,0,8,27-FD-06-00-00-00-00-00,S,-1
24644.363563,28739.471041,007.118495,2,2015,1,8,06-19-06-09-32-17-10-00,S,-1
24644.368167,28739.475646,007.009803,2,1949,0,8,10-08-59-06-09-32-17-0A,S,-1
24644.413569,28739.521047,007.118502,2,1941,1,8,30-00-00-00-00-00-00-00,S,-1
24644.418165,28739.525643,000.049998,2,1949,0,8,21-10-80-00-00-00-00-00,S,-1
24841.530769,28936.624532,197.153491,2,2015,1,8,06-19-06-09-32-17-FF-00,S,-1
24841.534511,28936.628274,197.102631,2,1949,0,8,10-0A-59-06-09-32-17-08,S,-1
24841.580773,28936.674536,197.153489,2,1941,1,8,30-00-00-00-00-00-00-00,S,-1
24841.584513,28936.678276,000.050002,2,1949,0,8,21-02-0A-10-80-00-00-00,S,-1
25040.550199,29135.629049,199.004517,2,2015,1,8,06-19-06-09-32-17-FF-00,S,-1
25040.553925,29135.632775,198.954499,2,1949,0,8,10-0A-59-06-09-32-17-08,S,-1
25040.600197,29135.679047,199.004511,2,1941,1,8,30-00-00-00-00-00-00-00,S,-1
25040.603921,29135.682772,000.049996,2,1949,0,8,21-02-14-10-80-00-00-00,S,-1
25239.600094,29334.664048,199.034999,2,2015,1,8,06-19-06-09-32-17-FF-00,S,-1
25239.609820,29334.673774,198.991002,2,1949,0,8,10-0A-59-06-09-32-17-08,S,-1
25239.650078,29334.714032,199.034985,2,1941,1,8,30-00-00-00-00-00-00-00,S,-1
25239.659822,29334.723776,000.050002,2,1949,0,8,21-02-1E-10-80-00-00-00,S,-1
25418.535075,29513.585132,178.921084,2,2015,1,8,06-19-06-09-32-17-FF-00,S,-1
25418.539747,29513.589804,178.866028,2,1949,0,8,10-0A-59-06-09-32-17-08,S,-1
25418.585071,29513.635128,178.921096,2,1941,1,8,30-00-00-00-00-00-00-00,S,-1
25418.589745,29513.639802,000.049998,2,1949,0,8,21-02-27-10-80-00-00-00,S,-1
25442.937510,29537.986047,024.400915,2,2015,1,8,06-19-06-09-32-17-10-00,S,-1
25442.947326,29537.995863,024.356062,2,1949,0,8,10-08-59-06-09-32-17-00,S,-1
25442.987508,29538.036045,024.400917,2,1941,1,8,30-00-00-00-00-00-00-00,S,-1
25442.997328,29538.045865,000.050002,2,1949,0,8,21-10-80-00-00-00-00-00,S,-1
25447.554426,29542.602544,004.616496,2,2015,1,8,06-19-04-09-32-17-10-00,S,-1
25447.557620,29542.605738,004.559873,2,1949,0,8,06-59-04-09-32-17-00-00,S,-1
25447.604430,29542.652547,004.616502,2,1941,1,8,30-00-00-00-00-00-00-00,S,-1
25451.574339,29546.622046,004.019503,2,2015,1,8,04-14-FF-FF-FF-00-00-00,S,-1
25451.577919,29546.625627,004.019889,2,1949,0,8,01-54-00-00-00-00-00-00,S,-1
25452.074336,29547.122043,000.499997,2,2015,1,8,06-19-06-09-32-17-FF-00,S,-1
25452.077902,29547.125609,000.499983,2,1949,0,8,10-08-59-06-09-32-17-00,S,-1
25452.174333,29547.222040,004.569493,2,1941,1,8,30-00-00-00-00-00-00-00,S,-1
25452.177901,29547.225608,000.099999,2,1949,0,8,21-10-00-00-00-00-00-00,S,-1
