19851.837892,23947.302549,004.659504,2,1941,1,8,03-22-D1-00-00-00-00-00,S,-1
19851.842796,23947.307453,004.659872,2,1949,0,8,04-62-D1-00-01-00-00-00,S,-1
19855.465306,23950.929542,003.626993,2,1941,1,8,04-14-FF-FF-FF-00-00-00,S,-1
19855.473116,23950.937352,003.629898,2,1949,0,8,01-54-00-00-00-00-00-00,S,-1
19855.515313,23950.979549,000.050007,2,1941,1,8,04-14-FF-FF-FF-00-00-00,S,-1
19855.523112,23950.987348,000.049997,2,1949,0,8,01-54-00-00-00-00-00-00,S,-1
19859.990714,23955.454532,004.474983,2,1941,1,8,03-19-02-0A-00-00-00-00,S,-1
19859.993406,23955.457224,004.469876,2,1949,0,8,07-59-02-CA-E0-0A-16-0A,S,-1
19860.090731,23955.554549,000.100017,2,1941,1,8,06-19-06-F0-06-16-FF-00,S,-1
19860.093405,23955.557224,000.099999,2,1949,0,8,10-08-59-06-F0-06-16-00,S,-1
19860.140723,23955.604541,000.049992,2,1941,1,8,30-00-00-00-00-00-00-00,S,-1
19860.143401,23955.607219,000.049996,2,1949,0,8,21-10-80-00-00-00-00-00,S,-1
19865.802250,23961.265546,005.661005,2,1941,1,8,03-19-02-0A-00-00-00-00,S,-1
19865.803766,23961.267063,005.659843,2,1949,0,8,10-0B-59-02-CA-F0-06-16,S,-1
19870.608769,23966.071546,004.806000,2,1941,1,8,06-19-06-F0-06-16-FF-00,S,-1
19870.614150,23966.076927,004.809864,2,1949,0,8,10-0A-59-06-F0-06-16-0A,S,-1
19870.658769,23966.121546,000.050000,2,1941,1,8,30-00-00-00-00-00-00-00,S,-1
19870.664149,23966.126927,000.050000,2,1949,0,8,21-02-00-10-7F-00-00-00,S,-1
19875.240189,23970.702538,004.580992,2,1941,1,8,06-19-04-F0-06-16-10-00,S,-1
19875.244451,23970.706800,004.579874,2,1949,0,8,10-35-59-04-F0-06-16-0A,S,-1
19875.290292,23970.752540,000.050002,2,1941,1,8,30-00-00-00-00-00-00-00,S,-1
19875.294548,23970.756796,000.049996,2,1949,0,8,21-10-0A-DD-00-00-00-00,S,-1
19875.304552,23970.766800,000.010004,2,1949,0,8,22-00-20-10-3F-FE-1E-89,S,-1
19875.314548,23970.776797,000.009996,2,1949,0,8,23-3F-F8-2B-1F-00-00-00,S,-1
19875.324548,23970.786796,000.010000,2,1949,0,8,24-00-1E-61-00-00-D1-15,S,-1
19875.334551,23970.796800,000.010004,2,1949,0,8,25-00-00-21-10-00-00-21,S,-1
19875.344547,23970.806796,000.009996,2,1949,0,8,26-0D-00-00-FD-0D-04-58,S,-1
19875.354547,23970.816796,000.010000,2,1949,0,8,27-FD-06-00-00-00-00-00,S,-1
19881.864445,23977.326046,006.573506,2,1941,1,8,06-19-06-F0-06-16-FF-00,S,-1
19881.875014,23977.336616,006.519820,2,1949,0,8,10-0A-59-06-F0-06-16-0A,S,-1
19881.914444,23977.376046,000.050000,2,1941,1,8,30-00-00-00-00-00-00-00,S,-1
19881.925010,23977.386612,000.049996,2,1949,0,8,21-02-00-10-80-00-00-00,S,-1
20060.917856,24156.366550,178.990504,2,1941,1,8,06-19-06-F0-06-16-FF-00,S,-1
20060.927708,24156.376403,178.989791,2,1949,0,8,10-0A-59-06-F0-06-16-08,S,-1
20060.967836,24156.416530,000.049980,2,1941,1,8,30-00-00-00-00-00-00-00,S,-1
20060.977704,24156.426398,000.049996,2,1949,0,8,21-02-0A-10-80-00-00-00,S,-1
20241.656888,24337.092545,180.676015,2,1941,1,8,06-19-06-F0-06-16-FF-00,S,-1
20241.667744,24337.103401,180.677002,2,1949,0,8,10-0A-59-06-F0-06-16-08,S,-1
20241.706884,24337.142541,000.049996,2,1941,1,8,30-00-00-00-00-00-00-00,S,-1
20241.717742,24337.153399,000.049998,2,1949,0,8,21-02-14-10-80-00-00-00,S,-1
20422.594439,24518.016040,180.873499,2,1941,1,8,06-19-06-F0-06-16-FF-00,S,-1
20422.605301,24518.026902,180.873503,2,1949,0,8,10-0A-59-06-F0-06-16-08,S,-1
20422.644441,24518.066042,000.050002,2,1941,1,8,30-00-00-00-00-00-00-00,S,-1
20422.655303,24518.076904,000.050002,2,1949,0,8,21-02-1E-10-80-00-00-00,S,-1
20585.430225,24680.839538,162.773496,2,1941,1,8,06-19-06-F0-06-16-FF-00,S,-1
20585.441104,24680.850418,162.773514,2,1949,0,8,10-0A-59-06-F0-06-16-08,S,-1
20585.480221,24680.889534,000.049996,2,1941,1,8,30-00-00-00-00-00-00-00,S,-1
20585.491218,24680.900532,000.050114,2,1949,0,8,21-02-27-10-80-00-00-00,S,-1
20606.839914,24702.248052,021.358518,2,1941,1,8,06-19-06-F0-06-16-FF-00,S,-1
20606.846804,24702.254942,021.354410,2,1949,0,8,10-08-59-06-F0-06-16-00,S,-1
20606.889898,24702.298036,000.049984,2,1941,1,8,30-00-00-00-00-00-00-00,S,-1
20606.896800,24702.304938,000.049996,2,1949,0,8,21-10-80-00-00-00-00-00,S,-1
20611.356803,24706.764539,004.466503,2,1941,1,8,06-19-04-F0-06-16-10-00,S,-1
20611.367075,24706.774811,004.469874,2,1949,0,8,06-59-04-F0-06-16-00-00,S,-1
20611.406811,24706.814547,000.050008,2,1941,1,8,30-00-00-00-00-00-00-00,S,-1
20615.383236,24710.790545,003.975998,2,1941,1,8,04-14-FF-FF-FF-00-00-00,S,-1
20615.387390,24710.794700,004.019888,2,1949,0,8,01-54-00-00-00-00-00-00,S,-1
20616.633329,24712.040537,001.249992,2,1941,1,8,06-19-06-F0-06-16-FF-00,S,-1
20616.637457,24712.044666,001.249966,2,1949,0,8,10-08-59-06-F0-06-16-00,S,-1
20616.683333,24712.090541,000.050004,2,1941,1,8,30-00-00-00-00-00-00-00,S,-1
20616.687459,24712.094668,000.050002,2,1949,0,8,21-10-80-00-00-00-00-00,S,-1
