2228.485532,6324.609532,004.909980,2,1941,1,8,03-22-D1-00-00-00-00-00,S,-1
2228.496480,6324.620480,004.909203,2,1949,0,8,04-62-D1-00-01-00-00-00,S,-1
2232.100038,6328.225038,003.615506,2,1941,1,8,04-14-FF-FF-FF-00-00-00,S,-1
2232.105381,6328.230381,003.609900,2,1949,0,8,01-54-00-00-00-00-00-00,S,-1
2232.150033,6328.275033,000.049995,2,1941,1,8,04-14-FF-FF-FF-00-00-00,S,-1
2232.155380,6328.280380,000.049999,2,1949,0,8,01-54-00-00-00-00-00-00,S,-1
2236.615538,6332.740538,004.465505,2,1941,1,8,03-19-02-0A-00-00-00-00,S,-1
2236.625256,6332.750256,004.469876,2,1949,0,8,07-59-02-CA-E0-0A-16-0A,S,-1
2236.715532,6332.840532,000.099994,2,1941,1,8,06-19-06-09-32-17-FF-00,S,-1
2236.725254,6332.850254,000.099998,2,1949,0,8,10-08-59-06-09-32-17-40,S,-1
2236.765532,6332.890532,000.050000,2,1941,1,8,30-00-00-00-00-00-00-00,S,-1
2236.775252,6332.900252,000.049999,2,1949,0,8,21-10-00-00-00-00-00-00,S,-1
2242.831532,6338.956532,006.066000,2,1941,1,8,06-19-06-09-32-17-10-00,S,-1
2242.835085,6338.960085,006.059833,2,1949,0,8,10-08-59-06-09-32-17-0A,S,-1
2242.881544,6339.006544,000.050012,2,1941,1,8,30-00-00-00-00-00-00-00,S,-1
2242.885087,6339.010087,000.050002,2,1949,0,8,21-10-7F-00-00-00-00-00,S,-1
2246.550047,6342.675047,003.668502,2,1941,1,8,06-19-06-09-32-17-FF-00,S,-1
2246.554983,6342.679983,003.669896,2,1949,0,8,10-0A-59-06-09-32-17-0A,S,-1
2246.600039,6342.725039,000.049992,2,1941,1,8,30-00-00-00-00-00-00-00,S,-1
2246.604985,6342.729985,000.050002,2,1949,0,8,21-02-00-10-7F-00-00-00,S,-1
2251.069538,6347.194538,004.469499,2,1941,1,8,06-19-04-09-32-17-10-00,S,-1
2251.074863,6347.199863,004.469877,2,1949,0,8,10-35-59-04-09-32-17-0A,S,-1
2251.119543,6347.244543,000.050005,2,1941,1,8,30-00-00-00-00-00-00-00,S,-1
2251.124857,6347.249857,000.049995,2,1949,0,8,21-10-0A-DD-00-00-00-00,S,-1
2251.134860,6347.259860,000.010002,2,1949,0,8,22-00-20-10-3F-FE-1E-89,S,-1
2251.144858,6347.269858,000.009998,2,1949,0,8,23-3F-F8-2B-1F-00-00-00,S,-1
2251.154856,6347.279856,000.009998,2,1949,0,8,24-00-1E-61-00-00-D1-15,S,-1
2251.164860,6347.289860,000.010004,2,1949,0,8,25-00-00-21-10-00-00-21,S,-1
2251.174856,6347.299856,000.009996,2,1949,0,8,26-0D-00-00-FD-0D-06-63,S,-1
2251.184856,6347.309856,000.010000,2,1949,0,8,27-FD-06-00-00-00-00-00,S,-1
2258.183042,6354.308042,007.063499,2,1941,1,8,06-19-06-09-32-17-10-00,S,-1
2258.184666,6354.309666,006.999810,2,1949,0,8,10-08-59-06-09-32-17-0A,S,-1
2258.233036,6354.358036,000.049994,2,1941,1,8,30-00-00-00-00-00-00-00,S,-1
2258.234662,6354.359662,000.049996,2,1949,0,8,21-10-80-00-00-00-00-00,S,-1
2455.211540,6551.341540,196.983504,2,1941,1,8,06-19-06-09-32-17-FF-00,S,-1
2455.217220,6551.347220,196.987558,2,1949,0,8,10-0A-59-06-09-32-17-08,S,-1
2455.261548,6551.391548,000.050008,2,1941,1,8,30-00-00-00-00-00-00-00,S,-1
2455.267220,6551.397220,000.050000,2,1949,0,8,21-02-0A-10-80-00-00-00,S,-1
2654.129033,6750.264033,198.872486,2,1941,1,8,06-19-06-09-32-17-FF-00,S,-1
2654.136279,6750.271279,198.874059,2,1949,0,8,10-0A-59-06-09-32-17-08,S,-1
2654.179049,6750.314049,000.050016,2,1941,1,8,30-00-00-00-00-00-00-00,S,-1
2654.186277,6750.321277,000.049998,2,1949,0,8,21-02-14-10-80-00-00-00,S,-1
2852.949038,6949.090038,198.775989,2,1941,1,8,06-19-06-09-32-17-FF-00,S,-1
2852.950722,6949.091722,198.770445,2,1949,0,8,10-0A-59-06-09-32-17-08,S,-1
2852.999040,6949.140040,000.050002,2,1941,1,8,30-00-00-00-00-00-00-00,S,-1
2853.000800,6949.141800,000.050078,2,1949,0,8,21-02-1E-10-80-00-00-00,S,-1
3031.666286,7127.811286,178.671246,2,1941,1,8,06-19-06-09-32-17-FF-00,S,-1
3031.672747,7127.817747,178.675947,2,1949,0,8,10-0A-59-06-09-32-17-08,S,-1
3031.716284,7127.861284,000.049998,2,1941,1,8,30-00-00-00-00-00-00-00,S,-1
3031.722745,7127.867745,000.049998,2,1949,0,8,21-02-27-10-80-00-00-00,S,-1
3056.066048,7152.212048,024.350764,2,1941,1,8,06-19-06-09-32-17-10-00,S,-1
3056.068809,7152.214809,024.347064,2,1949,0,8,10-08-59-06-09-32-17-00,S,-1
3056.116041,7152.262041,000.049992,2,1941,1,8,30-00-00-00-00-00-00-00,S,-1
3056.118805,7152.264805,000.049996,2,1949,0,8,21-10-80-00-00-00-00-00,S,-1
3060.482547,7156.628547,004.366506,2,1941,1,8,06-19-04-09-32-17-10-00,S,-1
3060.488685,7156.634685,004.369880,2,1949,0,8,06-59-04-09-32-17-00-00,S,-1
3060.532551,7156.678551,000.050004,2,1941,1,8,30-00-00-00-00-00-00-00,S,-1
3064.509041,7160.655041,003.976490,2,1941,1,8,04-14-FF-FF-FF-00-00-00,S,-1
3064.518575,7160.664575,004.029890,2,1949,0,8,01-54-00-00-00-00-00-00,S,-1
3065.009035,7161.155035,000.499994,2,1941,1,8,06-19-06-09-32-17-FF-00,S,-1
3065.018560,7161.164560,000.499985,2,1949,0,8,10-08-59-06-09-32-17-00,S,-1
3065.109034,7161.255034,000.100000,2,1941,1,8,30-00-00-00-00-00-00-00,S,-1
3065.118558,7161.264558,000.099998,2,1949,0,8,21-10-00-00-00-00-00-00,S,-1
