date Tue Dec 13 02:28:26.719 pm 2016
base hex  timestamps absolute
internal events logged
// version 9.0.0
Begin Triggerblock Tue Dec 13 02:28:26.719 pm 2016
   0.000000 Start of measurement
   0.001000 CAN 1 Status:chip status error active
   4.561518 1  161             Tx   d 8 FE 02 60 0B 00 00 00 00  Length = 234000 BitCount = 120 ID = 353
   6.241186 1  161             Tx   d 8 FE 03 00 00 00 00 00 00  Length = 238000 BitCount = 122 ID = 353
   6.609310 1  161             Tx   d 8 FE 04 00 00 00 00 00 00  Length = 240000 BitCount = 123 ID = 353
   7.057328 1  161             Tx   d 8 FE 08 00 00 00 00 00 00  Length = 242000 BitCount = 124 ID = 353
   7.130568 1  120             Rx   d 8 54 31 36 31 00 05 00 01  Length = 226000 BitCount = 117 ID = 288
   7.132584 1  121             Rx   d 8 00 00 00 70 FF FF 00 01  Length = 238000 BitCount = 123 ID = 289
   7.134580 1  122             Rx   d 8 03 00 01 01 06 CC B8 03  Length = 228000 BitCount = 118 ID = 290
   7.138593 1  123             Rx   d 8 6B 02 00 01 00 00 00 00  Length = 236000 BitCount = 122 ID = 291
   7.140603 1  124             Rx   d 8 00 00 00 00 00 00 00 00  Length = 242000 BitCount = 125 ID = 292
   7.142617 1  125             Rx   d 8 08 00 00 00 00 00 00 00  Length = 240000 BitCount = 124 ID = 293
   7.144615 1  126             Rx   d 8 00 00 00 00 00 00 00 00  Length = 240000 BitCount = 124 ID = 294
   7.146622 1  127             Rx   d 8 00 00 00 00 01 01 00 00  Length = 238000 BitCount = 123 ID = 295
   7.148634 1  128             Rx   d 8 00 00 00 00 00 00 00 00  Length = 244000 BitCount = 126 ID = 296
   7.150618 1  129             Rx   d 8 14 7B 33 97 00 00 00 00  Length = 228000 BitCount = 118 ID = 297
  11.577520 1  161             Tx   d 8 FE 02 60 0C 00 00 00 00  Length = 236000 BitCount = 121 ID = 353
  12.070636 1  161             Tx   d 8 FE 03 00 00 00 00 00 00  Length = 238000 BitCount = 122 ID = 353
  12.529111 1  161             Tx   d 8 FE 04 00 00 00 00 00 00  Length = 240000 BitCount = 123 ID = 353
  13.009286 1  161             Tx   d 8 FE 08 00 00 00 00 00 00  Length = 242000 BitCount = 124 ID = 353
  13.143310 1  120             Rx   d 8 54 31 36 31 00 05 00 01  Length = 226000 BitCount = 117 ID = 288
  13.145314 1  121             Rx   d 8 00 00 00 70 FF FF 00 02  Length = 234000 BitCount = 121 ID = 289
  13.147310 1  122             Rx   d 8 03 01 01 02 06 CC B8 03  Length = 226000 BitCount = 117 ID = 290
  13.151329 1  123             Rx   d 8 6C 02 00 02 00 00 00 00  Length = 234000 BitCount = 121 ID = 291
  13.153341 1  124             Rx   d 8 00 00 00 00 00 00 00 00  Length = 242000 BitCount = 125 ID = 292
  13.155339 1  125             Rx   d 8 18 00 00 00 00 00 00 00  Length = 238000 BitCount = 123 ID = 293
  13.157350 1  126             Rx   d 8 00 00 00 00 00 00 00 00  Length = 240000 BitCount = 124 ID = 294
  13.159352 1  127             Rx   d 8 00 00 00 00 01 02 00 00  Length = 238000 BitCount = 123 ID = 295
  13.161358 1  128             Rx   d 8 00 00 00 00 00 00 00 00  Length = 244000 BitCount = 126 ID = 296
  13.163362 1  129             Rx   d 8 3C 4D 21 75 00 00 00 00  Length = 232000 BitCount = 120 ID = 297
  17.697189 1  161             Tx   d 8 FE 02 60 0D 00 00 00 00  Length = 236000 BitCount = 121 ID = 353
  18.225085 1  161             Tx   d 8 FE 03 00 00 00 00 00 00  Length = 238000 BitCount = 122 ID = 353
  18.745979 1  161             Tx   d 8 FE 04 00 00 00 00 00 00  Length = 240000 BitCount = 123 ID = 353
  19.209054 1  161             Tx   d 8 FE 08 00 00 00 00 00 00  Length = 242000 BitCount = 124 ID = 353
  19.366960 1  120             Rx   d 8 54 31 36 31 00 05 00 01  Length = 226000 BitCount = 117 ID = 288
  19.368977 1  121             Rx   d 8 00 00 00 70 FF FF 00 03  Length = 236000 BitCount = 122 ID = 289
  19.370969 1  122             Rx   d 8 03 02 01 03 06 CC B8 03  Length = 228000 BitCount = 118 ID = 290
  19.374991 1  123             Rx   d 8 6D 02 00 03 00 00 00 00  Length = 236000 BitCount = 122 ID = 291
  19.377010 1  124             Rx   d 8 00 00 00 00 00 00 00 00  Length = 242000 BitCount = 125 ID = 292
  19.379006 1  125             Rx   d 8 38 00 00 00 00 00 00 00  Length = 240000 BitCount = 124 ID = 293
  19.381010 1  126             Rx   d 8 00 00 00 00 00 00 00 00  Length = 240000 BitCount = 124 ID = 294
  19.383018 1  127             Rx   d 8 00 00 00 00 01 03 00 00  Length = 240000 BitCount = 124 ID = 295
  19.385017 1  128             Rx   d 8 00 00 00 00 00 00 00 00  Length = 244000 BitCount = 126 ID = 296
  19.387013 1  129             Rx   d 8 BE 6B 1F B6 00 00 00 00  Length = 234000 BitCount = 121 ID = 297
  24.497009 1  161             Tx   d 8 FE 02 60 0E 00 00 00 00  Length = 234000 BitCount = 120 ID = 353
  24.985397 1  161             Tx   d 8 FE 03 00 00 00 00 00 00  Length = 238000 BitCount = 122 ID = 353
  25.481023 1  161             Tx   d 8 FE 04 00 00 00 00 00 00  Length = 240000 BitCount = 123 ID = 353
  26.464993 1  161             Tx   d 8 FE 08 00 00 00 00 00 00  Length = 242000 BitCount = 124 ID = 353
  26.563187 1  120             Rx   d 8 54 31 36 31 00 05 00 01  Length = 226000 BitCount = 117 ID = 288
  26.565191 1  121             Rx   d 8 00 00 00 70 FF FF 00 04  Length = 234000 BitCount = 121 ID = 289
  26.567195 1  122             Rx   d 8 03 00 01 04 06 CC B8 03  Length = 232000 BitCount = 120 ID = 290
  26.571206 1  123             Rx   d 8 6E 02 00 04 00 00 00 00  Length = 232000 BitCount = 120 ID = 291
  26.573216 1  124             Rx   d 8 00 00 00 00 00 00 00 00  Length = 242000 BitCount = 125 ID = 292
  26.575212 1  125             Rx   d 8 78 00 00 00 00 00 00 00  Length = 236000 BitCount = 122 ID = 293
  26.577225 1  126             Rx   d 8 00 00 00 00 00 00 00 00  Length = 240000 BitCount = 124 ID = 294
  26.579233 1  127             Rx   d 8 00 00 00 00 01 04 00 00  Length = 240000 BitCount = 124 ID = 295
  26.581233 1  128             Rx   d 8 00 00 00 00 00 00 00 00  Length = 244000 BitCount = 126 ID = 296
  26.583227 1  129             Rx   d 8 7D 58 DA 11 00 00 00 00  Length = 230000 BitCount = 119 ID = 297
  34.952852 1  161             Tx   d 8 FE 02 60 0F 00 00 00 00  Length = 234000 BitCount = 120 ID = 353
  37.184894 1  161             Tx   d 8 FE 03 00 00 00 00 00 00  Length = 238000 BitCount = 122 ID = 353
  38.896933 1  161             Tx   d 8 FE 04 00 00 00 00 00 00  Length = 240000 BitCount = 123 ID = 353
  39.897769 1  161             Tx   d 8 FE 08 00 00 00 00 00 00  Length = 242000 BitCount = 124 ID = 353
  40.033811 1  120             Rx   d 8 54 31 36 31 00 05 00 01  Length = 226000 BitCount = 117 ID = 288
  40.035818 1  121             Rx   d 8 00 00 00 70 FF FF 00 05  Length = 234000 BitCount = 121 ID = 289
  40.037808 1  122             Rx   d 8 03 01 01 00 06 CC B8 03  Length = 226000 BitCount = 117 ID = 290
  40.041820 1  123             Rx   d 8 6E 02 00 04 00 00 00 00  Length = 232000 BitCount = 120 ID = 291
  40.043837 1  124             Rx   d 8 00 00 00 00 00 00 00 00  Length = 242000 BitCount = 125 ID = 292
  40.045833 1  125             Rx   d 8 78 00 00 00 00 00 00 00  Length = 236000 BitCount = 122 ID = 293
  40.047847 1  126             Rx   d 8 00 00 00 00 00 00 00 00  Length = 240000 BitCount = 124 ID = 294
  40.049849 1  127             Rx   d 8 00 00 00 00 01 04 00 00  Length = 240000 BitCount = 124 ID = 295
  40.051854 1  128             Rx   d 8 00 00 00 00 00 00 00 00  Length = 244000 BitCount = 126 ID = 296
  40.053848 1  129             Rx   d 8 7D 58 DA 11 00 00 00 00  Length = 230000 BitCount = 119 ID = 297
End TriggerBlock
