date Tue Dec 13 02:14:07.662 pm 2016
base hex  timestamps absolute
internal events logged
// version 9.0.0
Begin Triggerblock Tue Dec 13 02:14:07.662 pm 2016
   0.000000 Start of measurement
   0.000855 CAN 1 Status:chip status error active
   5.297585 1  161             Tx   d 8 FE 02 60 05 00 00 00 00  Length = 236000 BitCount = 121 ID = 353
   5.864309 1  161             Tx   d 8 FE 03 00 00 00 00 00 00  Length = 238000 BitCount = 122 ID = 353
   6.336225 1  161             Tx   d 8 FE 04 00 00 00 00 00 00  Length = 240000 BitCount = 123 ID = 353
   6.920200 1  161             Tx   d 8 FE 08 00 00 00 00 00 00  Length = 242000 BitCount = 124 ID = 353
   7.064976 1  120             Rx   d 8 54 31 36 31 00 05 00 01  Length = 226000 BitCount = 117 ID = 288
   7.066986 1  121             Rx   d 8 00 00 00 70 FF FF 00 01  Length = 238000 BitCount = 123 ID = 289
   7.068980 1  122             Rx   d 8 03 00 01 01 06 CC B8 03  Length = 228000 BitCount = 118 ID = 290
   7.073001 1  123             Rx   d 8 65 02 00 01 00 00 00 00  Length = 234000 BitCount = 121 ID = 291
   7.075015 1  124             Rx   d 8 00 00 00 00 00 00 00 00  Length = 242000 BitCount = 125 ID = 292
   7.077019 1  125             Rx   d 8 00 20 00 00 00 00 00 00  Length = 238000 BitCount = 123 ID = 293
   7.079021 1  126             Rx   d 8 00 00 00 00 00 00 00 00  Length = 240000 BitCount = 124 ID = 294
   7.081026 1  127             Rx   d 8 00 00 00 00 01 01 00 00  Length = 238000 BitCount = 123 ID = 295
   7.083028 1  128             Rx   d 8 00 00 00 00 00 00 00 00  Length = 244000 BitCount = 126 ID = 296
   7.085020 1  129             Rx   d 8 86 39 55 3D 00 00 00 00  Length = 226000 BitCount = 117 ID = 297
  11.072148 1  161             Tx   d 8 FE 02 60 06 00 00 00 00  Length = 236000 BitCount = 121 ID = 353
  11.456489 1  161             Tx   d 8 FE 03 00 00 00 00 00 00  Length = 238000 BitCount = 122 ID = 353
  11.872076 1  161             Tx   d 8 FE 04 00 00 00 00 00 00  Length = 240000 BitCount = 123 ID = 353
  12.264110 1  161             Tx   d 8 FE 08 00 00 00 00 00 00  Length = 242000 BitCount = 124 ID = 353
  12.336130 1  120             Rx   d 8 54 31 36 31 00 05 00 01  Length = 226000 BitCount = 117 ID = 288
  12.338136 1  121             Rx   d 8 00 00 00 70 FF FF 00 02  Length = 234000 BitCount = 121 ID = 289
  12.340131 1  122             Rx   d 8 03 01 01 02 06 CC B8 03  Length = 226000 BitCount = 117 ID = 290
  12.344149 1  123             Rx   d 8 66 02 00 02 00 00 00 00  Length = 236000 BitCount = 122 ID = 291
  12.346169 1  124             Rx   d 8 00 00 00 00 00 00 00 00  Length = 242000 BitCount = 125 ID = 292
  12.348176 1  125             Rx   d 8 00 60 00 00 00 00 00 00  Length = 240000 BitCount = 124 ID = 293
  12.350174 1  126             Rx   d 8 00 00 00 00 00 00 00 00  Length = 240000 BitCount = 124 ID = 294
  12.352180 1  127             Rx   d 8 00 00 00 00 01 02 00 00  Length = 238000 BitCount = 123 ID = 295
  12.354188 1  128             Rx   d 8 00 00 00 00 00 00 00 00  Length = 244000 BitCount = 126 ID = 296
  12.356177 1  129             Rx   d 8 7A F8 C4 C2 00 00 00 00  Length = 228000 BitCount = 118 ID = 297
  16.240099 1  161             Tx   d 8 FE 02 60 07 00 00 00 00  Length = 236000 BitCount = 121 ID = 353
  16.648097 1  161             Tx   d 8 FE 03 00 00 00 00 00 00  Length = 238000 BitCount = 122 ID = 353
  17.024146 1  161             Tx   d 8 FE 04 00 00 00 00 00 00  Length = 240000 BitCount = 123 ID = 353
  17.416113 1  161             Tx   d 8 FE 08 00 00 00 00 00 00  Length = 242000 BitCount = 124 ID = 353
  17.507532 1  120             Rx   d 8 54 31 36 31 00 05 00 01  Length = 226000 BitCount = 117 ID = 288
  17.509544 1  121             Rx   d 8 00 00 00 70 FF FF 00 03  Length = 236000 BitCount = 122 ID = 289
  17.511540 1  122             Rx   d 8 03 02 01 03 06 CC B8 03  Length = 228000 BitCount = 118 ID = 290
  17.515555 1  123             Rx   d 8 67 02 00 03 00 00 00 00  Length = 234000 BitCount = 121 ID = 291
  17.517581 1  124             Rx   d 8 00 00 00 00 00 00 00 00  Length = 242000 BitCount = 125 ID = 292
  17.519575 1  125             Rx   d 8 00 E0 00 00 00 00 00 00  Length = 240000 BitCount = 124 ID = 293
  17.521581 1  126             Rx   d 8 00 00 00 00 00 00 00 00  Length = 240000 BitCount = 124 ID = 294
  17.523592 1  127             Rx   d 8 00 00 00 00 01 03 00 00  Length = 240000 BitCount = 124 ID = 295
  17.525592 1  128             Rx   d 8 00 00 00 00 00 00 00 00  Length = 244000 BitCount = 126 ID = 296
  17.527582 1  129             Rx   d 8 A8 0C 6A 04 00 00 00 00  Length = 232000 BitCount = 120 ID = 297
  21.896142 1  161             Tx   d 8 FE 02 60 08 00 00 00 00  Length = 236000 BitCount = 121 ID = 353
  22.272005 1  161             Tx   d 8 FE 03 00 00 00 00 00 00  Length = 238000 BitCount = 122 ID = 353
  22.632071 1  161             Tx   d 8 FE 04 00 00 00 00 00 00  Length = 240000 BitCount = 123 ID = 353
  23.008046 1  161             Tx   d 8 FE 08 00 00 00 00 00 00  Length = 242000 BitCount = 124 ID = 353
  23.160441 1  120             Rx   d 8 54 31 36 31 00 05 00 01  Length = 226000 BitCount = 117 ID = 288
  23.162455 1  121             Rx   d 8 00 00 00 70 FF FF 00 04  Length = 234000 BitCount = 121 ID = 289
  23.164449 1  122             Rx   d 8 03 00 01 04 06 CC B8 03  Length = 232000 BitCount = 120 ID = 290
  23.168464 1  123             Rx   d 8 68 02 00 04 00 00 00 00  Length = 234000 BitCount = 121 ID = 291
  23.170472 1  124             Rx   d 8 00 00 00 00 00 00 00 00  Length = 242000 BitCount = 125 ID = 292
  23.172474 1  125             Rx   d 8 01 E0 00 00 00 00 00 00  Length = 240000 BitCount = 124 ID = 293
  23.174479 1  126             Rx   d 8 00 00 00 00 00 00 00 00  Length = 240000 BitCount = 124 ID = 294
  23.176489 1  127             Rx   d 8 00 00 00 00 01 04 00 00  Length = 240000 BitCount = 124 ID = 295
  23.178489 1  128             Rx   d 8 00 00 00 00 00 00 00 00  Length = 244000 BitCount = 126 ID = 296
  23.180485 1  129             Rx   d 8 20 AF 57 9C 00 00 00 00  Length = 234000 BitCount = 121 ID = 297
  27.407950 1  161             Tx   d 8 FE 02 60 09 00 00 00 00  Length = 234000 BitCount = 120 ID = 353
  27.800813 1  161             Tx   d 8 FE 03 00 00 00 00 00 00  Length = 238000 BitCount = 122 ID = 353
  28.276809 1  161             Tx   d 8 FE 04 00 00 00 00 00 00  Length = 240000 BitCount = 123 ID = 353
  28.839630 1  161             Tx   d 8 FE 08 00 00 00 00 00 00  Length = 242000 BitCount = 124 ID = 353
  28.973993 1  120             Rx   d 8 54 31 36 31 00 05 00 01  Length = 226000 BitCount = 117 ID = 288
  28.976005 1  121             Rx   d 8 00 00 00 70 FF FF 00 05  Length = 234000 BitCount = 121 ID = 289
  28.977999 1  122             Rx   d 8 03 01 01 05 06 CC B8 03  Length = 226000 BitCount = 117 ID = 290
  28.982014 1  123             Rx   d 8 69 02 00 05 00 00 00 00  Length = 232000 BitCount = 120 ID = 291
  28.984042 1  124             Rx   d 8 00 00 00 00 00 00 00 00  Length = 242000 BitCount = 125 ID = 292
  28.986038 1  125             Rx   d 8 03 E0 00 00 00 00 00 00  Length = 240000 BitCount = 124 ID = 293
  28.988042 1  126             Rx   d 8 00 00 00 00 00 00 00 00  Length = 240000 BitCount = 124 ID = 294
  28.990053 1  127             Rx   d 8 00 00 00 00 01 05 00 00  Length = 238000 BitCount = 123 ID = 295
  28.992055 1  128             Rx   d 8 00 00 00 00 00 00 00 00  Length = 244000 BitCount = 126 ID = 296
  28.994043 1  129             Rx   d 8 37 36 6D 71 00 00 00 00  Length = 228000 BitCount = 118 ID = 297
  32.863813 1  161             Tx   d 8 FE 02 60 0A 00 00 00 00  Length = 234000 BitCount = 120 ID = 353
  33.295974 1  161             Tx   d 8 FE 03 00 00 00 00 00 00  Length = 238000 BitCount = 122 ID = 353
  33.663936 1  161             Tx   d 8 FE 04 00 00 00 00 00 00  Length = 240000 BitCount = 123 ID = 353
  34.175930 1  161             Tx   d 8 FE 08 00 00 00 00 00 00  Length = 242000 BitCount = 124 ID = 353
  34.326822 1  120             Rx   d 8 54 31 36 31 00 05 00 01  Length = 226000 BitCount = 117 ID = 288
  34.328836 1  121             Rx   d 8 00 00 00 70 FF FF 00 06  Length = 236000 BitCount = 122 ID = 289
  34.330833 1  122             Rx   d 8 03 02 01 06 06 CC B8 03  Length = 226000 BitCount = 117 ID = 290
  34.334843 1  123             Rx   d 8 6A 02 00 06 00 00 00 00  Length = 232000 BitCount = 120 ID = 291
  34.336871 1  124             Rx   d 8 00 00 00 00 00 00 00 00  Length = 242000 BitCount = 125 ID = 292
  34.338868 1  125             Rx   d 8 07 E0 00 00 00 00 00 00  Length = 240000 BitCount = 124 ID = 293
  34.340872 1  126             Rx   d 8 00 00 00 00 00 00 00 00  Length = 240000 BitCount = 124 ID = 294
  34.342884 1  127             Rx   d 8 00 00 00 00 01 06 00 00  Length = 240000 BitCount = 124 ID = 295
  34.344882 1  128             Rx   d 8 00 00 00 00 00 00 00 00  Length = 244000 BitCount = 126 ID = 296
  34.346873 1  129             Rx   d 8 43 92 51 F5 00 00 00 00  Length = 232000 BitCount = 120 ID = 297
  37.824541 1  161             Tx   d 8 FE 02 60 0B 00 00 00 00  Length = 234000 BitCount = 120 ID = 353
  38.223935 1  161             Tx   d 8 FE 03 00 00 00 00 00 00  Length = 238000 BitCount = 122 ID = 353
  38.583480 1  161             Tx   d 8 FE 04 00 00 00 00 00 00  Length = 240000 BitCount = 123 ID = 353
  39.001554 1  161             Tx   d 8 FE 08 00 00 00 00 00 00  Length = 242000 BitCount = 124 ID = 353
  39.098789 1  120             Rx   d 8 54 31 36 31 00 05 00 01  Length = 226000 BitCount = 117 ID = 288
  39.100803 1  121             Rx   d 8 00 00 00 70 FF FF 00 07  Length = 238000 BitCount = 123 ID = 289
  39.102801 1  122             Rx   d 8 03 00 01 00 06 CC B8 03  Length = 228000 BitCount = 118 ID = 290
  39.106808 1  123             Rx   d 8 6A 02 00 06 00 00 00 00  Length = 232000 BitCount = 120 ID = 291
  39.108828 1  124             Rx   d 8 00 00 00 00 00 00 00 00  Length = 242000 BitCount = 125 ID = 292
  39.110824 1  125             Rx   d 8 07 E0 00 00 00 00 00 00  Length = 240000 BitCount = 124 ID = 293
  39.112828 1  126             Rx   d 8 00 00 00 00 00 00 00 00  Length = 240000 BitCount = 124 ID = 294
  39.114837 1  127             Rx   d 8 00 00 00 00 01 06 00 00  Length = 240000 BitCount = 124 ID = 295
  39.116853 1  128             Rx   d 8 00 00 00 00 00 00 00 00  Length = 244000 BitCount = 126 ID = 296
  39.118843 1  129             Rx   d 8 43 92 51 F5 00 00 00 00  Length = 232000 BitCount = 120 ID = 297
End TriggerBlock
