date Tue Dec 13 01:58:16.033 pm 2016
base hex  timestamps absolute
internal events logged
// version 9.0.0
Begin Triggerblock Tue Dec 13 01:58:16.033 pm 2016
   0.000000 Start of measurement
   0.000770 CAN 1 Status:chip status error active
   5.526914 1  161             Tx   d 8 FE 01 60 05 00 00 00 00  Length = 238000 BitCount = 122 ID = 353
   6.198504 1  161             Tx   d 8 FE 03 00 00 00 00 00 00  Length = 238000 BitCount = 122 ID = 353
   6.662666 1  161             Tx   d 8 FE 04 00 00 00 00 00 00  Length = 240000 BitCount = 123 ID = 353
   7.166557 1  161             Tx   d 8 FE 08 00 00 00 00 00 00  Length = 242000 BitCount = 124 ID = 353
   7.292362 1  120             Rx   d 8 54 31 36 31 00 05 00 01  Length = 226000 BitCount = 117 ID = 288
   7.294372 1  121             Rx   d 8 00 00 00 70 FF FF 00 01  Length = 238000 BitCount = 123 ID = 289
   7.296373 1  122             Rx   d 8 03 00 01 01 06 CC B8 03  Length = 228000 BitCount = 118 ID = 290
   7.300387 1  123             Rx   d 8 65 01 00 01 00 00 00 00  Length = 234000 BitCount = 121 ID = 291
   7.302401 1  124             Rx   d 8 00 00 00 00 00 00 00 00  Length = 242000 BitCount = 125 ID = 292
   7.304404 1  125             Rx   d 8 00 20 00 00 00 00 00 00  Length = 238000 BitCount = 123 ID = 293
   7.306402 1  126             Rx   d 8 00 00 00 00 00 00 00 00  Length = 240000 BitCount = 124 ID = 294
   7.308408 1  127             Rx   d 8 00 00 00 00 01 01 00 00  Length = 238000 BitCount = 123 ID = 295
   7.310414 1  128             Rx   d 8 00 00 00 00 00 00 00 00  Length = 244000 BitCount = 126 ID = 296
   7.312411 1  129             Rx   d 8 1C C7 40 1B 00 00 00 00  Length = 230000 BitCount = 119 ID = 297
  21.820210 1  161             Tx   d 8 FE 01 60 06 00 00 00 00  Length = 236000 BitCount = 121 ID = 353
  22.670487 1  161             Tx   d 8 FE 03 00 00 00 00 00 00  Length = 238000 BitCount = 122 ID = 353
  23.134404 1  161             Tx   d 8 FE 04 00 00 00 00 00 00  Length = 240000 BitCount = 123 ID = 353
  23.574323 1  161             Tx   d 8 FE 08 00 00 00 00 00 00  Length = 242000 BitCount = 124 ID = 353
  23.686937 1  120             Rx   d 8 54 31 36 31 00 05 00 01  Length = 226000 BitCount = 117 ID = 288
  23.688953 1  121             Rx   d 8 00 00 00 70 FF FF 00 02  Length = 234000 BitCount = 121 ID = 289
  23.690945 1  122             Rx   d 8 03 01 01 02 06 CC B8 03  Length = 226000 BitCount = 117 ID = 290
  23.694964 1  123             Rx   d 8 66 01 00 02 00 00 00 00  Length = 236000 BitCount = 122 ID = 291
  23.696970 1  124             Rx   d 8 00 00 00 00 00 00 00 00  Length = 242000 BitCount = 125 ID = 292
  23.698970 1  125             Rx   d 8 00 60 00 00 00 00 00 00  Length = 240000 BitCount = 124 ID = 293
  23.700981 1  126             Rx   d 8 00 00 00 00 00 00 00 00  Length = 240000 BitCount = 124 ID = 294
  23.702981 1  127             Rx   d 8 00 00 00 00 01 02 00 00  Length = 238000 BitCount = 123 ID = 295
  23.704987 1  128             Rx   d 8 00 00 00 00 00 00 00 00  Length = 244000 BitCount = 126 ID = 296
  23.706977 1  129             Rx   d 8 9E 0E 59 C4 00 00 00 00  Length = 230000 BitCount = 119 ID = 297
  30.294365 1  161             Tx   d 8 FE 01 60 07 00 00 00 00  Length = 236000 BitCount = 121 ID = 353
  30.710536 1  161             Tx   d 8 FE 03 00 00 00 00 00 00  Length = 238000 BitCount = 122 ID = 353
  31.142435 1  161             Tx   d 8 FE 04 00 00 00 00 00 00  Length = 240000 BitCount = 123 ID = 353
  33.406483 1  161             Tx   d 8 FE 08 00 00 00 00 00 00  Length = 242000 BitCount = 124 ID = 353
  33.563330 1  120             Rx   d 8 54 31 36 31 00 05 00 01  Length = 226000 BitCount = 117 ID = 288
  33.565338 1  121             Rx   d 8 00 00 00 70 FF FF 00 03  Length = 236000 BitCount = 122 ID = 289
  33.567334 1  122             Rx   d 8 03 02 01 03 06 CC B8 03  Length = 228000 BitCount = 118 ID = 290
  33.571351 1  123             Rx   d 8 67 01 00 03 00 00 00 00  Length = 236000 BitCount = 122 ID = 291
  33.573361 1  124             Rx   d 8 00 00 00 00 00 00 00 00  Length = 242000 BitCount = 125 ID = 292
  33.575373 1  125             Rx   d 8 00 E0 00 00 00 00 00 00  Length = 240000 BitCount = 124 ID = 293
  33.577374 1  126             Rx   d 8 00 00 00 00 00 00 00 00  Length = 240000 BitCount = 124 ID = 294
  33.579384 1  127             Rx   d 8 00 00 00 00 01 03 00 00  Length = 240000 BitCount = 124 ID = 295
  33.581388 1  128             Rx   d 8 00 00 00 00 00 00 00 00  Length = 244000 BitCount = 126 ID = 296
  33.583380 1  129             Rx   d 8 8E BD CB A4 00 00 00 00  Length = 226000 BitCount = 117 ID = 297
  41.254132 1  161             Tx   d 8 FE 01 60 08 00 00 00 00  Length = 236000 BitCount = 121 ID = 353
  42.430117 1  161             Tx   d 8 FE 03 00 00 00 00 00 00  Length = 238000 BitCount = 122 ID = 353
  42.718088 1  161             Tx   d 8 FE 04 00 00 00 00 00 00  Length = 240000 BitCount = 123 ID = 353
  43.126429 1  161             Tx   d 8 FE 08 00 00 00 00 00 00  Length = 242000 BitCount = 124 ID = 353
  43.219831 1  120             Rx   d 8 54 31 36 31 00 05 00 01  Length = 226000 BitCount = 117 ID = 288
  43.221853 1  121             Rx   d 8 00 00 00 70 FF FF 00 04  Length = 234000 BitCount = 121 ID = 289
  43.223851 1  122             Rx   d 8 03 00 01 04 06 CC B8 03  Length = 232000 BitCount = 120 ID = 290
  43.227864 1  123             Rx   d 8 68 01 00 04 00 00 00 00  Length = 236000 BitCount = 122 ID = 291
  43.229876 1  124             Rx   d 8 00 00 00 00 00 00 00 00  Length = 242000 BitCount = 125 ID = 292
  43.231870 1  125             Rx   d 8 01 E0 00 00 00 00 00 00  Length = 240000 BitCount = 124 ID = 293
  43.233875 1  126             Rx   d 8 00 00 00 00 00 00 00 00  Length = 240000 BitCount = 124 ID = 294
  43.235887 1  127             Rx   d 8 00 00 00 00 01 04 00 00  Length = 240000 BitCount = 124 ID = 295
  43.237887 1  128             Rx   d 8 00 00 00 00 00 00 00 00  Length = 244000 BitCount = 126 ID = 296
  43.239879 1  129             Rx   d 8 DE FE 2B E2 00 00 00 00  Length = 230000 BitCount = 119 ID = 297
  47.382133 1  161             Tx   d 8 FE 01 60 09 00 00 00 00  Length = 234000 BitCount = 120 ID = 353
  47.718204 1  161             Tx   d 8 FE 03 00 00 00 00 00 00  Length = 238000 BitCount = 122 ID = 353
  48.022329 1  161             Tx   d 8 FE 04 00 00 00 00 00 00  Length = 240000 BitCount = 123 ID = 353
  48.390146 1  161             Tx   d 8 FE 08 00 00 00 00 00 00  Length = 242000 BitCount = 124 ID = 353
  48.547715 1  120             Rx   d 8 54 31 36 31 00 05 00 01  Length = 226000 BitCount = 117 ID = 288
  48.549725 1  121             Rx   d 8 00 00 00 70 FF FF 00 05  Length = 234000 BitCount = 121 ID = 289
  48.551726 1  122             Rx   d 8 03 01 01 05 06 CC B8 03  Length = 226000 BitCount = 117 ID = 290
  48.555736 1  123             Rx   d 8 69 01 00 05 00 00 00 00  Length = 232000 BitCount = 120 ID = 291
  48.557754 1  124             Rx   d 8 00 00 00 00 00 00 00 00  Length = 242000 BitCount = 125 ID = 292
  48.559751 1  125             Rx   d 8 03 E0 00 00 00 00 00 00  Length = 240000 BitCount = 124 ID = 293
  48.561755 1  126             Rx   d 8 00 00 00 00 00 00 00 00  Length = 240000 BitCount = 124 ID = 294
  48.563773 1  127             Rx   d 8 00 00 00 00 01 05 00 00  Length = 238000 BitCount = 123 ID = 295
  48.565767 1  128             Rx   d 8 00 00 00 00 00 00 00 00  Length = 244000 BitCount = 126 ID = 296
  48.567770 1  129             Rx   d 8 26 82 27 AC 00 00 00 00  Length = 234000 BitCount = 121 ID = 297
  54.742030 1  161             Tx   d 8 FE 01 60 0A 00 00 00 00  Length = 236000 BitCount = 121 ID = 353
  55.005962 1  161             Tx   d 8 FE 03 00 00 00 00 00 00  Length = 238000 BitCount = 122 ID = 353
  55.295664 1  161             Tx   d 8 FE 04 00 00 00 00 00 00  Length = 240000 BitCount = 123 ID = 353
  55.581923 1  161             Tx   d 8 FE 08 00 00 00 00 00 00  Length = 242000 BitCount = 124 ID = 353
  55.704688 1  120             Rx   d 8 54 31 36 31 00 05 00 01  Length = 226000 BitCount = 117 ID = 288
  55.706696 1  121             Rx   d 8 00 00 00 70 FF FF 00 06  Length = 236000 BitCount = 122 ID = 289
  55.708690 1  122             Rx   d 8 03 02 01 06 06 CC B8 03  Length = 226000 BitCount = 117 ID = 290
  55.712707 1  123             Rx   d 8 6A 01 00 06 00 00 00 00  Length = 234000 BitCount = 121 ID = 291
  55.714719 1  124             Rx   d 8 00 00 00 00 00 00 00 00  Length = 242000 BitCount = 125 ID = 292
  55.716725 1  125             Rx   d 8 07 E0 00 00 00 00 00 00  Length = 240000 BitCount = 124 ID = 293
  55.718723 1  126             Rx   d 8 00 00 00 00 00 00 00 00  Length = 240000 BitCount = 124 ID = 294
  55.720740 1  127             Rx   d 8 00 00 00 00 01 06 00 00  Length = 240000 BitCount = 124 ID = 295
  55.722744 1  128             Rx   d 8 00 00 00 00 00 00 00 00  Length = 244000 BitCount = 126 ID = 296
  55.724740 1  129             Rx   d 8 E2 A9 34 0E 00 00 00 00  Length = 230000 BitCount = 119 ID = 297
  59.133501 1  161             Tx   d 8 FE 01 60 0B 00 00 00 00  Length = 238000 BitCount = 122 ID = 353
  59.406933 1  161             Tx   d 8 FE 03 00 00 00 00 00 00  Length = 238000 BitCount = 122 ID = 353
  59.717908 1  161             Tx   d 8 FE 04 00 00 00 00 00 00  Length = 240000 BitCount = 123 ID = 353
  60.037927 1  161             Tx   d 8 FE 08 00 00 00 00 00 00  Length = 242000 BitCount = 124 ID = 353
  60.196632 1  120             Rx   d 8 54 31 36 31 00 05 00 01  Length = 226000 BitCount = 117 ID = 288
  60.198646 1  121             Rx   d 8 00 00 00 70 FF FF 00 07  Length = 238000 BitCount = 123 ID = 289
  60.200656 1  122             Rx   d 8 03 00 01 07 06 CC B8 03  Length = 230000 BitCount = 119 ID = 290
  60.204661 1  123             Rx   d 8 6B 01 00 07 00 00 00 00  Length = 232000 BitCount = 120 ID = 291
  60.206683 1  124             Rx   d 8 00 00 00 00 00 00 00 00  Length = 242000 BitCount = 125 ID = 292
  60.208675 1  125             Rx   d 8 0F E0 00 00 00 00 00 00  Length = 242000 BitCount = 125 ID = 293
  60.210677 1  126             Rx   d 8 00 00 00 00 00 00 00 00  Length = 240000 BitCount = 124 ID = 294
  60.212690 1  127             Rx   d 8 00 00 00 00 01 07 00 00  Length = 240000 BitCount = 124 ID = 295
  60.214688 1  128             Rx   d 8 00 00 00 00 00 00 00 00  Length = 244000 BitCount = 126 ID = 296
  60.216684 1  129             Rx   d 8 45 2A 8F FE 00 00 00 00  Length = 234000 BitCount = 121 ID = 297
  63.981895 1  161             Tx   d 8 FE 01 60 0C 00 00 00 00  Length = 236000 BitCount = 121 ID = 353
  64.253871 1  161             Tx   d 8 FE 03 00 00 00 00 00 00  Length = 238000 BitCount = 122 ID = 353
  64.541870 1  161             Tx   d 8 FE 04 00 00 00 00 00 00  Length = 240000 BitCount = 123 ID = 353
  64.823242 1  161             Tx   d 8 FE 08 00 00 00 00 00 00  Length = 242000 BitCount = 124 ID = 353
  64.944307 1  120             Rx   d 8 54 31 36 31 00 05 00 01  Length = 226000 BitCount = 117 ID = 288
  64.946319 1  121             Rx   d 8 00 00 00 70 FF FF 00 08  Length = 236000 BitCount = 122 ID = 289
  64.948316 1  122             Rx   d 8 03 01 01 08 06 CC B8 03  Length = 224000 BitCount = 116 ID = 290
  64.952332 1  123             Rx   d 8 6C 01 00 08 00 00 00 00  Length = 236000 BitCount = 122 ID = 291
  64.954342 1  124             Rx   d 8 00 00 00 00 00 00 00 00  Length = 242000 BitCount = 125 ID = 292
  64.956347 1  125             Rx   d 8 1F E0 00 00 00 00 00 00  Length = 240000 BitCount = 124 ID = 293
  64.958347 1  126             Rx   d 8 00 00 00 00 00 00 00 00  Length = 240000 BitCount = 124 ID = 294
  64.960351 1  127             Rx   d 8 00 00 00 00 01 08 00 00  Length = 236000 BitCount = 122 ID = 295
  64.962369 1  128             Rx   d 8 00 00 00 00 00 00 00 00  Length = 244000 BitCount = 126 ID = 296
  64.964358 1  129             Rx   d 8 10 FF 94 36 00 00 00 00  Length = 230000 BitCount = 119 ID = 297
  68.485823 1  161             Tx   d 8 FE 01 60 0D 00 00 00 00  Length = 236000 BitCount = 121 ID = 353
  68.749866 1  161             Tx   d 8 FE 03 00 00 00 00 00 00  Length = 238000 BitCount = 122 ID = 353
  68.998066 1  161             Tx   d 8 FE 04 00 00 00 00 00 00  Length = 240000 BitCount = 123 ID = 353
  69.323820 1  161             Tx   d 8 FE 08 00 00 00 00 00 00  Length = 242000 BitCount = 124 ID = 353
  69.452774 1  120             Rx   d 8 54 31 36 31 00 05 00 01  Length = 226000 BitCount = 117 ID = 288
  69.454780 1  121             Rx   d 8 00 00 00 70 FF FF 00 09  Length = 234000 BitCount = 121 ID = 289
  69.456774 1  122             Rx   d 8 03 02 01 09 06 CC B8 03  Length = 224000 BitCount = 116 ID = 290
  69.460799 1  123             Rx   d 8 6D 01 00 09 00 00 00 00  Length = 232000 BitCount = 120 ID = 291
  69.462815 1  124             Rx   d 8 00 00 00 00 00 00 00 00  Length = 242000 BitCount = 125 ID = 292
  69.464827 1  125             Rx   d 8 3F E0 00 00 00 00 00 00  Length = 246000 BitCount = 127 ID = 293
  69.466815 1  126             Rx   d 8 00 00 00 00 00 00 00 00  Length = 240000 BitCount = 124 ID = 294
  69.468818 1  127             Rx   d 8 00 00 00 00 01 09 00 00  Length = 236000 BitCount = 122 ID = 295
  69.470826 1  128             Rx   d 8 00 00 00 00 00 00 00 00  Length = 244000 BitCount = 126 ID = 296
  69.472824 1  129             Rx   d 8 41 6B 4B F6 00 00 00 00  Length = 230000 BitCount = 119 ID = 297
  73.645998 1  161             Tx   d 8 FE 01 60 0E 00 00 00 00  Length = 236000 BitCount = 121 ID = 353
  73.657695 1  ErrorFrame	ECC: 10101010
  73.657695 CAN 1 Status:chip status error active  - TxErr: 0 RxErr: 1
  73.925862 1  161             Tx   d 8 FE 03 00 00 00 00 00 00  Length = 238000 BitCount = 122 ID = 353
  74.000732 CAN 1 Status:chip status error active
  74.221771 1  161             Tx   d 8 FE 04 00 00 00 00 00 00  Length = 240000 BitCount = 123 ID = 353
  74.503322 1  161             Tx   d 8 FE 08 00 00 00 00 00 00  Length = 242000 BitCount = 124 ID = 353
  74.612902 1  120             Rx   d 8 54 31 36 31 00 05 00 01  Length = 226000 BitCount = 117 ID = 288
  74.614912 1  121             Rx   d 8 00 00 00 70 FF FF 00 0A  Length = 234000 BitCount = 121 ID = 289
  74.616904 1  122             Rx   d 8 03 00 01 0A 06 CC B8 03  Length = 226000 BitCount = 117 ID = 290
  74.620917 1  123             Rx   d 8 6E 01 00 0A 00 00 00 00  Length = 232000 BitCount = 120 ID = 291
  74.622933 1  124             Rx   d 8 00 00 00 00 00 00 00 00  Length = 242000 BitCount = 125 ID = 292
  74.624937 1  125             Rx   d 8 7F E0 00 00 00 00 00 00  Length = 238000 BitCount = 123 ID = 293
  74.626937 1  126             Rx   d 8 00 00 00 00 00 00 00 00  Length = 240000 BitCount = 124 ID = 294
  74.628942 1  127             Rx   d 8 00 00 00 00 01 0A 00 00  Length = 238000 BitCount = 123 ID = 295
  74.630954 1  128             Rx   d 8 00 00 00 00 00 00 00 00  Length = 244000 BitCount = 126 ID = 296
  74.632938 1  129             Rx   d 8 68 69 58 AB 00 00 00 00  Length = 228000 BitCount = 118 ID = 297
  85.669625 1  161             Tx   d 8 FE 01 60 0F 00 00 00 00  Length = 234000 BitCount = 120 ID = 353
  85.957631 1  161             Tx   d 8 FE 03 00 00 00 00 00 00  Length = 238000 BitCount = 122 ID = 353
  86.245670 1  161             Tx   d 8 FE 04 00 00 00 00 00 00  Length = 240000 BitCount = 123 ID = 353
  86.573106 1  161             Tx   d 8 FE 08 00 00 00 00 00 00  Length = 242000 BitCount = 124 ID = 353
  86.637485 1  120             Rx   d 8 54 31 36 31 00 05 00 01  Length = 226000 BitCount = 117 ID = 288
  86.639495 1  121             Rx   d 8 00 00 00 70 FF FF 00 0B  Length = 234000 BitCount = 121 ID = 289
  86.641494 1  122             Rx   d 8 03 01 01 0B 06 CC B8 03  Length = 224000 BitCount = 116 ID = 290
  86.645516 1  123             Rx   d 8 6F 01 00 0B 00 00 00 00  Length = 234000 BitCount = 121 ID = 291
  86.647530 1  124             Rx   d 8 00 00 00 00 00 00 00 00  Length = 242000 BitCount = 125 ID = 292
  86.649535 1  125             Rx   d 8 FF E0 00 00 00 00 00 00  Length = 240000 BitCount = 124 ID = 293
  86.651535 1  126             Rx   d 8 00 00 00 00 00 00 00 00  Length = 240000 BitCount = 124 ID = 294
  86.653537 1  127             Rx   d 8 00 00 00 00 01 0B 00 00  Length = 238000 BitCount = 123 ID = 295
  86.655547 1  128             Rx   d 8 00 00 00 00 00 00 00 00  Length = 244000 BitCount = 126 ID = 296
  86.657534 1  129             Rx   d 8 97 CE 52 8B 00 00 00 00  Length = 228000 BitCount = 118 ID = 297
End TriggerBlock
