date Tue Dec 13 01:19:33.802 pm 2016
base hex  timestamps absolute
internal events logged
// version 9.0.0
Begin Triggerblock Tue Dec 13 01:19:33.802 pm 2016
   0.000000 Start of measurement
   0.000637 CAN 1 Status:chip status error active
   5.244267 1  161             Tx   d 8 FE 01 1F 00 08 01 00 00  Length = 238000 BitCount = 122 ID = 353
   5.542065 1  161             Tx   d 8 FE 03 00 00 00 00 00 00  Length = 238000 BitCount = 122 ID = 353
   5.884238 1  161             Tx   d 8 FE 04 00 00 00 00 00 00  Length = 240000 BitCount = 123 ID = 353
   6.228008 1  161             Tx   d 8 FE 08 00 00 00 00 00 00  Length = 242000 BitCount = 124 ID = 353
   6.305802 1  120             Rx   d 8 54 31 36 31 00 05 00 01  Length = 226000 BitCount = 117 ID = 288
   6.307810 1  121             Rx   d 8 00 00 00 70 FF FF 00 01  Length = 238000 BitCount = 123 ID = 289
   6.309807 1  122             Rx   d 8 03 00 01 01 06 CC B8 03  Length = 228000 BitCount = 118 ID = 290
   6.313819 1  123             Rx   d 8 81 01 00 01 00 00 00 00  Length = 236000 BitCount = 122 ID = 291
   6.315829 1  124             Rx   d 8 00 00 00 00 00 00 00 00  Length = 242000 BitCount = 125 ID = 292
   6.317834 1  125             Rx   d 8 00 00 00 00 00 02 00 00  Length = 238000 BitCount = 123 ID = 293
   6.319834 1  126             Rx   d 8 00 00 00 00 00 00 00 00  Length = 240000 BitCount = 124 ID = 294
   6.321856 1  127             Rx   d 8 00 00 00 00 01 01 00 00  Length = 238000 BitCount = 123 ID = 295
   6.323822 1  128             Rx   d 8 11 22 AA BB CC DD 33 44  Length = 218000 BitCount = 113 ID = 296
   6.325839 1  129             Rx   d 8 7D EE 2B 83 00 00 00 00  Length = 230000 BitCount = 119 ID = 297
  11.692070 1  161             Tx   d 8 FE 01 1F 00 09 05 00 00  Length = 236000 BitCount = 121 ID = 353
  12.107859 1  161             Tx   d 8 FE 03 00 00 00 00 00 00  Length = 238000 BitCount = 122 ID = 353
  12.429012 1  161             Tx   d 8 FE 04 00 00 00 00 00 00  Length = 240000 BitCount = 123 ID = 353
  12.732385 1  161             Tx   d 8 FE 08 00 00 00 00 00 00  Length = 242000 BitCount = 124 ID = 353
  12.854990 1  120             Rx   d 8 54 31 36 31 00 05 00 01  Length = 226000 BitCount = 117 ID = 288
  12.857005 1  121             Rx   d 8 00 00 00 70 FF FF 00 02  Length = 234000 BitCount = 121 ID = 289
  12.858997 1  122             Rx   d 8 03 01 01 02 06 CC B8 03  Length = 226000 BitCount = 117 ID = 290
  12.863017 1  123             Rx   d 8 95 01 00 02 00 00 00 00  Length = 232000 BitCount = 120 ID = 291
  12.865028 1  124             Rx   d 8 00 00 00 00 00 00 00 00  Length = 242000 BitCount = 125 ID = 292
  12.867028 1  125             Rx   d 8 00 00 00 00 00 02 00 20  Length = 240000 BitCount = 124 ID = 293
  12.869036 1  126             Rx   d 8 00 00 00 00 00 00 00 00  Length = 240000 BitCount = 124 ID = 294
  12.871036 1  127             Rx   d 8 00 00 00 00 01 02 00 00  Length = 238000 BitCount = 123 ID = 295
  12.873017 1  128             Rx   d 8 11 22 AA BB CC DD 33 44  Length = 218000 BitCount = 113 ID = 296
  12.875049 1  129             Rx   d 8 4F B5 58 81 00 00 00 00  Length = 230000 BitCount = 119 ID = 297
  19.291881 1  161             Tx   d 8 FE 01 1F 00 0A 03 00 00  Length = 236000 BitCount = 121 ID = 353
  19.676011 1  161             Tx   d 8 FE 03 00 00 00 00 00 00  Length = 238000 BitCount = 122 ID = 353
  20.083824 1  161             Tx   d 8 FE 04 00 00 00 00 00 00  Length = 240000 BitCount = 123 ID = 353
  20.483917 1  161             Tx   d 8 FE 08 00 00 00 00 00 00  Length = 242000 BitCount = 124 ID = 353
  20.556849 1  120             Rx   d 8 54 31 36 31 00 05 00 01  Length = 226000 BitCount = 117 ID = 288
  20.558861 1  121             Rx   d 8 00 00 00 70 FF FF 00 03  Length = 236000 BitCount = 122 ID = 289
  20.560870 1  122             Rx   d 8 03 02 01 03 06 CC B8 03  Length = 228000 BitCount = 118 ID = 290
  20.564880 1  123             Rx   d 8 A3 01 00 03 00 00 00 00  Length = 234000 BitCount = 121 ID = 291
  20.566898 1  124             Rx   d 8 00 00 00 00 00 00 00 00  Length = 242000 BitCount = 125 ID = 292
  20.568893 1  125             Rx   d 8 00 00 00 00 00 02 00 20  Length = 240000 BitCount = 124 ID = 293
  20.570893 1  126             Rx   d 8 00 08 00 00 00 00 00 00  Length = 240000 BitCount = 124 ID = 294
  20.572905 1  127             Rx   d 8 00 00 00 00 01 03 00 00  Length = 240000 BitCount = 124 ID = 295
  20.574879 1  128             Rx   d 8 11 22 AA BB CC DD 33 44  Length = 218000 BitCount = 113 ID = 296
  20.576896 1  129             Rx   d 8 A3 02 31 92 00 00 00 00  Length = 228000 BitCount = 118 ID = 297
  29.995754 1  161             Tx   d 8 FE 01 1F 00 0B 0D 00 00  Length = 234000 BitCount = 120 ID = 353
  30.771684 1  161             Tx   d 8 FE 03 00 00 00 00 00 00  Length = 238000 BitCount = 122 ID = 353
  31.395681 1  161             Tx   d 8 FE 04 00 00 00 00 00 00  Length = 240000 BitCount = 123 ID = 353
  31.939676 1  161             Tx   d 8 FE 08 00 00 00 00 00 00  Length = 242000 BitCount = 124 ID = 353
  32.062349 1  120             Rx   d 8 54 31 36 31 00 05 00 01  Length = 226000 BitCount = 117 ID = 288
  32.064361 1  121             Rx   d 8 00 00 00 70 FF FF 00 04  Length = 234000 BitCount = 121 ID = 289
  32.066356 1  122             Rx   d 8 03 00 01 04 06 CC B8 03  Length = 232000 BitCount = 120 ID = 290
  32.070368 1  123             Rx   d 8 BD 01 00 04 00 00 00 00  Length = 234000 BitCount = 121 ID = 291
  32.072376 1  124             Rx   d 8 00 00 00 00 00 00 00 00  Length = 242000 BitCount = 125 ID = 292
  32.074379 1  125             Rx   d 8 00 00 00 00 00 02 00 20  Length = 240000 BitCount = 124 ID = 293
  32.076387 1  126             Rx   d 8 00 08 20 00 00 00 00 00  Length = 240000 BitCount = 124 ID = 294
  32.078395 1  127             Rx   d 8 00 00 00 00 01 04 00 00  Length = 240000 BitCount = 124 ID = 295
  32.080367 1  128             Rx   d 8 11 22 AA BB CC DD 33 44  Length = 218000 BitCount = 113 ID = 296
  32.082388 1  129             Rx   d 8 59 3B B5 A7 00 00 00 00  Length = 228000 BitCount = 118 ID = 297
End TriggerBlock
