{u'CID': [1,
          4,
          5,
          7,
          8,
          9,
          44,
          45,
          50,
          55,
          74,
          88,
          90,
          99,
          100,
          101,
          102,
          103,
          104,
          105,
          106,
          107,
          120,
          132,
          133],
 u'CoSi': [1,
           6,
           7,
           9,
           10,
           11,
           17,
           18,
           19,
           20,
           22,
           24,
           25,
           26,
           27,
           28,
           29,
           30,
           31,
           32,
           33,
           34,
           36,
           37,
           38,
           39,
           40,
           41,
           42,
           44,
           46,
           48,
           57,
           61,
           63,
           64,
           65,
           68,
           69,
           71,
           72,
           73,
           74,
           79,
           80,
           81,
           83,
           86,
           88,
           89,
           143,
           144,
           145,
           146,
           147,
           149,
           150,
           153,
           155,
           156,
           165],
 u'Curtain': [6,
              7,
              8,
              9,
              12,
              14,
              15,
              16,
              17,
              19,
              36,
              37,
              38,
              39,
              44,
              45,
              46,
              47,
              48,
              50,
              51,
              52,
              53,
              54,
              55,
              58,
              60,
              75,
              77,
              78,
              81,
              84,
              85,
              87,
              91,
              93,
              103,
              104,
              113,
              114,
              115,
              116,
              117],
 u'General': [17, 23, 26],
 u'HSK': [11, 19, 20, 27, 28],
 u'KFS': [5,
          6,
          9,
          10,
          11,
          12,
          18,
          22,
          26,
          27,
          28,
          29,
          32,
          42,
          43,
          45,
          46,
          49,
          51,
          52,
          53,
          54,
          55],
 u'Mechanical': [],
 u'Volume': [2, 4, 5, 6],
 u'ZuZi': [26,
           27,
           39,
           40,
           54,
           56,
           57,
           61,
           62,
           63,
           94,
           111,
           114,
           115,
           121,
           122,
           127,
           128,
           129,
           131,
           132,
           133,
           134,
           136,
           139,
           140,
           141]}