KFS:
23 found
42 missing
CID:
25 found
110 missing
HSK:
5 found
23 missing
ZuZi:
27 found
114 missing
CoSi:
61 found
119 missing
General:
3 found
39 missing
Volume:
4 found
2 missing
Mechanical:
0 found
5 missing
Curtain:
43 found
75 missing

{u'CID': [[2, u'ID: EK_KJ_PA_CDM 1412'],
          [3, u'ID: EK_KJ_PA_CDM 3040\nID: EK_KJ_PA_CDM 3041'],
          [6, u'ID: EK_KJ_PA_CDM 1257'],
          [10, u'ID: EK_KJ_PA_CDM 3745'],
          [11, u'ID: EK_KJ_PA_CDM 1641'],
          [12, u'ID: EK_KJ_PA_CDM 1642 '],
          [13, u'ID: EK_KJ_PA_CDM 1643'],
          [14, u'ID: EK_KJ_PA_CDM 4537'],
          [15, u'ID: EK_KJ_PA_CDM 4756'],
          [16, u'ID: EK_KJ_PA_CDM 4762'],
          [17, u'ID: EK_KJ_PA_CDM 4496'],
          [18, u'ID: EK_KJ_PA_CDM 4142'],
          [19, u'ID: EK_KJ_PA_CDM 2964'],
          [20, u'ID: EK_KJ_PA_CDM 3037'],
          [21, u'ID: EK_KJ_PA_CDM 3281'],
          [22, u'ID: EK_KJ_PA_CDM 3282'],
          [23, u'ID: EK_KJ_PA_CDM 3283'],
          [24, u'ID: EK_KJ_PA_CDM 3284'],
          [25, u'ID: EK_KJ_PA_CDM 3286'],
          [26, u'ID: EK_KJ_PA_CDM 3289'],
          [27, u'ID: EK_KJ_PA_CDM 3290'],
          [28, u'ID: EK_KJ_PA_CDM 4324'],
          [29, u'ID: EK_KJ_PA_CDM 3292'],
          [30, u'ID: EK_KJ_PA_CDM 4325'],
          [31, u'ID: EK_KJ_PA_CDM 4326'],
          [32, u'ID: EK_KJ_PA_CDM 4328'],
          [33, u'ID: EK_KJ_PA_CDM 3294'],
          [34, u'ID: EK_KJ_PA_CDM 3295'],
          [35, u'ID: EK_KJ_PA_CDM 3296'],
          [36, u'ID: EK_KJ_PA_CDM 3298'],
          [37, u'ID: EK_KJ_PA_CDM 3299'],
          [38, u'ID: EK_KJ_PA_CDM 3301'],
          [39, u'ID: EK_KJ_PA_CDM 3302'],
          [40, u'ID: EK_KJ_PA_CDM 4620_1'],
          [41, u'ID: EK_KJ_PA_CDM 4620_2'],
          [42, u'ID: EK_KJ_PA_CDM 4620_3'],
          [43, u'ID: EK_KJ_PA_CDM 4620_4'],
          [46, u'ID: EK_KJ_PA_CDM 4620_7'],
          [47, u'ID: EK_KJ_PA_CDM 4620_8'],
          [48, u'ID: EK_KJ_PA_CDM 4620_9'],
          [49, u'ID: EK_KJ_PA_CDM 4620_10'],
          [51, u'ID: EK_KJ_PA_CDM 4620_12'],
          [52, u'ID: EK_KJ_PA_CDM 4620_13'],
          [53, u'ID: EK_KJ_PA_CDM 4620_14'],
          [54, u'ID: EK_KJ_PA_CDM 4620_15'],
          [56, u'ID: EK_KJ_PA_CDM 4620_17'],
          [57, u'ID: EK_KJ_PA_CDM 4620_18'],
          [58, u'ID: EK_KJ_PA_CDM 4620_19'],
          [59, u'ID: EK_KJ_PA_CDM 4620_20'],
          [60, u'ID: EK_KJ_PA_CDM 4620_21'],
          [61, u'ID: EK_KJ_PA_CDM 4620_22'],
          [62, u'ID: EK_KJ_PA_CDM 4620_23'],
          [63, u'ID: EK_KJ_PA_CDM 4620_24'],
          [64, u'ID: EK_KJ_PA_CDM 4620_25'],
          [65, u'ID: EK_KJ_PA_CDM 4620_26'],
          [66, u'ID: EK_KJ_PA_CDM 4620_27'],
          [67, u'ID: EK_KJ_PA_CDM 4620_28'],
          [68, u'ID: EK_KJ_PA_CDM 4620_29'],
          [69, u'ID: EK_KJ_PA_CDM 4620_30'],
          [70, u'ID: EK_KJ_PA_CDM 4620_31'],
          [71, u'ID: EK_KJ_PA_CDM 4620_32'],
          [72, u'ID: EK_KJ_PA_CDM 4620_33'],
          [73, u'ID: EK_KJ_PA_CDM 4620_34'],
          [75, u'ID: EK_KJ_PA_CDM 4620_36'],
          [76, u'ID: EK_KJ_PA_CDM 4620_37'],
          [77, u'ID: EK_KJ_PA_CDM 4620_38'],
          [78, u'ID: EK_KJ_PA_CDM 4620_39'],
          [79, u'ID: EK_KJ_PA_CDM 4620_40'],
          [80, u'ID: EK_KJ_PA_CDM 4620_41'],
          [81, u'ID: EK_KJ_PA_CDM 4620_42'],
          [82, u'ID: EK_KJ_PA_CDM 4620_43'],
          [83, u'ID: EK_KJ_PA_CDM 3477'],
          [84, u'D: EK_KJ_PA_CDM 3479'],
          [85, u'ID: EK_KJ_AB_CDM_AB3826'],
          [86, u'ID: EK_KJ_AB_CDM_AB3828'],
          [87, u'ID: EK_KJ_AB_CDM_AB3830'],
          [89, None],
          [91, None],
          [92, None],
          [93, u'20150602_CR6_CID-Klappe_CDMGen2.docx'],
          [94, u'20150602_CR6_CID-Klappe_CDMGen2.docx'],
          [95, None],
          [96, None],
          [97, u'ID: EK_KJ_PA_CDM 4621'],
          [98, u'EK_KJ_PA_CDM 5098'],
          [108, u'Omron Internal requirement'],
          [109, u'Omron Internal requirement'],
          [110, u'Omron Internal requirement'],
          [111,
           u'DTC 0x8038C8 (CID motor short circuit, CID Motor Kurzschluss)'],
          [112,
           u'DTC 0x8038C8 (CID motor short circuit, CID Motor Kurzschluss)'],
          [113, u'STEUERN_CID, ISO 14229UDS'],
          [114, u'DID 0x1600'],
          [115, u'DID 0x1601'],
          [116, u'Funktionsbeschreibung_v4'],
          [117, u'Conversation between Mr. Kleckner \nand Mr. Schuster'],
          [118, u'20150602_CR6_CID-Klappe_CDMGen2_en'],
          [119, u'20150602_CR6_CID-Klappe_CDMGen2_en'],
          [121, u'ID: EK_KJ_PA_CDM 2989 '],
          [122, u'ID: EK_KJ_PA_CDM 2990 '],
          [123, u'ID: EK_KJ_PA_CDM 2991 '],
          [124, u'ID: EK_KJ_PA_CDM 2992 '],
          [125, None],
          [126, None],
          [127, u'ID: Opening and closing of CID_2'],
          [128, u'ID: Opening and closing of CID_3'],
          [129, u'LIN Shutdown Behavior '],
          [130, u'ID: Automatically addressing_2'],
          [131, u'Slaves AutoAddressing status'],
          [134, u'CR ZBE uSwitch'],
          [135, u'EK_KJ_PA_CDM 4620_03']],
 u'CoSi': [[2, u'ID: EK_KJ_CDM_UE913'],
           [3, u'ID: EK_KJ_CDM_UE929'],
           [4, u'ID: EK_KJ_PA_CDM 4551'],
           [5, u'ID: EK_KJ_PA_CDM 4568'],
           [8, u'ID: EK_KJ_PA_CDM 4554'],
           [12, u'ID: EK_KJ_PA_CDM 4566'],
           [13, u'ID: EK_KJ_PA_CDM 4573'],
           [14, u'ID: EK_KJ_PA_CDM 4574'],
           [15, u'ID: EK_KJ_PA_CDM 4575'],
           [16, u'ID: EK_KJ_PA_CDM 4576'],
           [21, u'ID: EK_KJ_PA_CDM 4586'],
           [23, u'ID: EK_KJ_PA_CDM 4812'],
           [35, u'ID: EK_KJ_PA_CDM 4816'],
           [43, u'ID: EK_KJ_PA_CDM 1251'],
           [45, u'ID: EK_KJ_PA_CDM 1418'],
           [47, u'ID: EK_KJ_PA_CDM 1470'],
           [49, u'ID: EK_KJ_PA_CDM 1520'],
           [50, u'ID: EK_KJ_PA_CDM 1641'],
           [51, u'ID: EK_KJ_PA_CDM 1643'],
           [52, u'ID: EK_KJ_PA_CDM 4536'],
           [53, u'ID: EK_KJ_PA_CDM 4761'],
           [54, u'ID: EK_KJ_PA_CDM 4496'],
           [55, u'ID: EK_KJ_PA_CDM 4498'],
           [56, u'ID: EK_KJ_PA_CDM 2662'],
           [58, u'ID: EK_KJ_PA_CDM 2664'],
           [59, u'ID: EK_KJ_PA_CDM 3037'],
           [60, u'ID: EK_KJ_PA_CDM 3040\nID: EK_KJ_PA_CDM 3041'],
           [62, u'ID: EK_KJ_PA_CDM 3046'],
           [66, u'ID: EK_KJ_PA_CDM 3049'],
           [67, u'ID: EK_KJ_PA_CDM 4924'],
           [70, u'ID: EK_KJ_PA_CDM 4504'],
           [75, u'ID: EK_KJ_PA_CDM 3058'],
           [76, u'ID: EK_KJ_PA_CDM 3059'],
           [77, u'ID: EK_KJ_PA_CDM 3060'],
           [78, u'ID: EK_KJ_PA_CDM 3061'],
           [82,
            u'ID: EK_KJ_PA_CDM 3064\nID: EK_KJ_PA_CDM 3065\nID: EK_KJ_PA_CDM 3066\nID: EK_KJ_PA_CDM 3067\nID: EK_KJ_PA_CDM 3070'],
           [84, u'ID: EK_KJ_PA_CDM 3073'],
           [85, u'ID: EK_KJ_PA_CDM 3074'],
           [87, u'ID: EK_KJ_PA_CDM 4311'],
           [90, u'ID: EK_KJ_PA_CDM 3078'],
           [91, u'ID: EK_KJ_PA_CDM 3079\nID: EK_KJ_PA_CDM 3080'],
           [92, u'ID: EK_KJ_PA_CDM 3081'],
           [93, u'ID: EK_KJ_PA_CDM 3082'],
           [94, u'ID: EK_KJ_PA_CDM 3083'],
           [95, u'ID: EK_KJ_PA_CDM 3084'],
           [96, u'ID: EK_KJ_PA_CDM 3085'],
           [97, u'ID: EK_KJ_PA_CDM 3086'],
           [98, u'ID: EK_KJ_PA_CDM 3087'],
           [99, u'ID: EK_KJ_PA_CDM 3088'],
           [100, u'ID: EK_KJ_PA_CDM 3089'],
           [101, u'ID: EK_KJ_PA_CDM 3090'],
           [102, u'ID: EK_KJ_PA_CDM 3091'],
           [103, u'ID: EK_KJ_PA_CDM 3092'],
           [104, u'ID: EK_KJ_PA_CDM 3093'],
           [105, u'ID: EK_KJ_PA_CDM 3094'],
           [106, u'ID: EK_KJ_PA_CDM 3096'],
           [107, u'ID: EK_KJ_PA_CDM 3097'],
           [108, u'ID: EK_KJ_PA_CDM 3098'],
           [109, u'ID: EK_KJ_PA_CDM 3099'],
           [110, u'ID: EK_KJ_PA_CDM 3100'],
           [111, u'ID: EK_KJ_PA_CDM 3101\nID: EK_KJ_PA_CDM 3102'],
           [112, u'ID: EK_KJ_PA_CDM 4539'],
           [113, u'ID: EK_KJ_PA_CDM 3104'],
           [114, u'D: EK_KJ_PA_CDM 3111'],
           [115, u'D: EK_KJ_PA_CDM 3111'],
           [116,
            u'5.3.1.1  Anforderungen an die Hardware - Requirements for the hardware'],
           [117, u'ID: EK_KJ_PA_CDM 4317'],
           [118, u'ID: EK_KJ_PA_CDM 4318'],
           [119,
            u'5.3.2  Spezielle Anforderungen: CoSi bei Fahrzeugen nur mit Coachdoors und ohne Fluchtweg / \nSpecial  requirements:  CoSi  in  the  case  of  vehicles  with  coach  doors  only  and  without \nescape route'],
           [120, u'ID: EK_KJ_PA_CDM 3115'],
           [121, u'ID: EK_KJ_PA_CDM 3116'],
           [122, u'ID: EK_KJ_PA_CDM 3117'],
           [123, u'ID: EK_KJ_PA_CDM 3118'],
           [124, u'5.3.2.2  Allgemeine Beschreibung - General description'],
           [125, u'ID: EK_KJ_PA_CDM 3120'],
           [126, u'ID: EK_KJ_PA_CDM 3121'],
           [127, u'ID: EK_KJ_PA_CDM 3123'],
           [128, u'ID: EK_KJ_PA_CDM 3124'],
           [129, u'ID: EK_KJ_PA_CDM 3125'],
           [130, u'ID: EK_KJ_PA_CDM 3126'],
           [131, u'ID: EK_KJ_PA_CDM 3127'],
           [132, u'ID: EK_KJ_PA_CDM 3128'],
           [133, u'ID: EK_KJ_PA_CDM 3129'],
           [134, u'ID: EK_KJ_PA_CDM 3130'],
           [135, u'ID: EK_KJ_PA_CDM 3131'],
           [136,
            u'5.3.2.4  Anforderungen  an  die  Ablauflogik  (Software)  -  Requirements  for  the  sequence  logic \n(software)'],
           [137, u'ID: EK_KJ_PA_CDM 3136'],
           [138, u'ID: EK_KJ_PA_CDM 3234'],
           [139, u'ID: EK_KJ_PA_CDM 3235'],
           [140, u'ID: EK_KJ_PA_CDM 5013'],
           [141, u'ID: EK_KJ_PA_CDM 5005'],
           [142, u'ID: EK_KJ_PA_CDM 5004'],
           [148, u'NK_35up_KW47_14_V11_Body-CAN_V36_CDM2_V1_PWF_fern.html'],
           [151, u'NK_35up_KW47_14_V11_Body-CAN_V36_CDM2_V1_PWF_fern.html'],
           [152, u'CoSi Logic Table'],
           [154, None],
           [157, u'ENG_TSR_0002_3'],
           [158, None],
           [159, None],
           [160, None],
           [161, None],
           [162, None],
           [163, None],
           [164, None],
           [166, None],
           [167, None],
           [168, None],
           [169, u'EK_KJ_PA_CDM 4810'],
           [170, u'EK_KJ_PA_CDM 4815'],
           [171, u'Message Catalog: CODO_LIM_V - ST_ECU_CODO_LIM_V'],
           [172, u'EK_KJ_PA_CDM 4930'],
           [173, u'CR: CDM2\nAnforderungen \u201ePartition Wall\u201c'],
           [174, u'CR: CDM2\nAnforderungen \u201ePartition Wall\u201c'],
           [175, u'CR: CDM2\nAnforderungen \u201ePartition Wall\u201c'],
           [176, u'CR: CDM2\nAnforderungen \u201ePartition Wall\u201c'],
           [177, u'CR: CDM2\nAnforderungen \u201ePartition Wall\u201c'],
           [178, u'CR: CDM2\nAnforderungen \u201ePartition Wall\u201c'],
           [179, u'CR: CDM2\nAnforderungen \u201ePartition Wall\u201c'],
           [180, u'Fault Reporting ']],
 u'Curtain': [[1, u' EK_KJ_PA_CDM 3545 '],
              [2, u' EK_KJ_PA_CDM 3546 '],
              [3, u'EK_KJ_PA_CDM 3547 '],
              [4, u' EK_KJ_PA_CDM 3548'],
              [5, u' EK_KJ_PA_CDM  4708 '],
              [10, u' EK_KJ_PA_CDM 3556'],
              [11, u' EK_KJ_PA_CDM 3557'],
              [13, u' EK_KJ_PA_CDM 3559'],
              [18, u' EK_KJ_PA_CDM 4748'],
              [20, u'  EK_KJ_PA_CDM 3561 '],
              [21, u'  EK_KJ_PA_CDM 3562'],
              [22, u'  EK_KJ_PA_CDM 3563'],
              [23, u'  EK_KJ_PA_CDM 3564'],
              [24, u'  EK_KJ_PA_CDM 3565'],
              [25, u'  EK_KJ_PA_CDM 4711'],
              [26, u'  EK_KJ_PA_CDM 3566'],
              [27, u'  EK_KJ_PA_CDM 4890'],
              [28, u'  EK_KJ_PA_CDM 3567'],
              [29, u'  EK_KJ_PA_CDM 3568'],
              [30, u'  EK_KJ_PA_CDM 4923 '],
              [31, u'EK_KJ_PA_CDM 4920'],
              [32, u'  EK_KJ_PA_CDM 4921'],
              [33, u'  EK_KJ_PA_CDM 4922'],
              [34, u'  EK_KJ_PA_CDM 3569'],
              [35, u'  EK_KJ_PA_CDM 3570'],
              [40, u'  EK_KJ_PA_CDM 3579'],
              [41, u'EK_KJ_PA_CDM 3580 '],
              [42, u'EK_KJ_PA_CDM 3582 '],
              [43, u'EK_KJ_PA_CDM 3583 '],
              [49, u' EK_KJ_PA_CDM 3588'],
              [56, u'EK_KJ_PA_CDM 3594'],
              [57, u'EK_KJ_PA_CDM 3595'],
              [59, u'EK_KJ_PA_CDM 4909'],
              [61, u'EK_KJ_PA_CDM  4911'],
              [62, u'EK_KJ_PA_CDM  4912'],
              [63, u'EK_KJ_PA_CDM  3599'],
              [64, u'EK_KJ_PA_CDM  3600'],
              [65, u'EK_KJ_PA_CDM  3601'],
              [66, u'EK_KJ_PA_CDM  3603'],
              [67, u'EK_KJ_PA_CDM  3605'],
              [68, u'EK_KJ_PA_CDM  3606'],
              [69, u'EK_KJ_PA_CDM 3608 '],
              [70, u'EK_KJ_PA_CDM 4878'],
              [71, u'EK_KJ_PA_CDM 3597'],
              [72, u'EK_KJ_PA_CDM 4894'],
              [73, u'EK_KJ_PA_CDM 4895'],
              [74, u'EK_KJ_PA_CDM 4914'],
              [76, u'EK_KJ_PA_CDM 3610'],
              [79, u'EK_KJ_PA_CDM 3614'],
              [80, u'EK_KJ_PA_CDM 4897'],
              [82, u'EK_KJ_PA_CDM 4916'],
              [83, u'EK_KJ_PA_CDM 3617'],
              [86, u' EK_KJ_PA_CDM 3153'],
              [88, u'EK_KJ_CDM_UE911'],
              [89, u' EK_KJ_CDM_UE1062 '],
              [90, u' EK_KJ_CDM_UE1065'],
              [92, None],
              [94, None],
              [95, None],
              [96, None],
              [97, None],
              [98, None],
              [99, None],
              [100, None],
              [101, None],
              [102, None],
              [105, u'10486972_LH_SA_Gardine_Anfragefrei'],
              [106, u'10486972_LH_SA_Gardine_Anfragefrei'],
              [107, u'10486972_LH_SA_Gardine_Anfragefrei'],
              [108, u'EK_KJ_PA_CDM  4510'],
              [109, None],
              [110, None],
              [111, None],
              [112, None],
              [118, u'EK_KJ_PA_CDM 1250']],
 u'General': [[1, u'ID: EK_KJ_PA_CDM 1682'],
              [2, u'ID: EK_KJ_PA_CDM 2658'],
              [3, u'ID: EK_KJ_PA_CDM 2586'],
              [4, u'ID: EK_KJ_PA_CDM 2596'],
              [5, u'ID: EK_KJ_PA_CDM 2576'],
              [6, u'ID: EK_KJ_PA_CDM 4142'],
              [7, u'ID: EK_KJ_PA_CDM 4496'],
              [8, u'ID: EK_KJ_PA_CDM 2957'],
              [9, u'ID: EK_KJ_PA_CDM 2950'],
              [10, u'ID: EK_KJ_PA_CDM 1672'],
              [11, u'ID: EK_KJ_PA_CDM 2621'],
              [12, u'ID: EK_KJ_PA_CDM 2666'],
              [13, u'General'],
              [14, u'General'],
              [15, u'General'],
              [16, u'General'],
              [18, u'Diagnostics'],
              [19, u'Diagnostics'],
              [20, u'Diagnostics'],
              [21, u'Coding'],
              [22, u'Diagnostics'],
              [24, u'Network Management'],
              [25, u'Network Management'],
              [27, u'EK_KJ_PA_CDM 1417'],
              [28, u'Zedis DTC 02050D Fault triggering information'],
              [29,
               u'Clarification on the final implementation towards E2E timeout detection with relation to NM timing.'],
              [30, None],
              [31, None],
              [32, u'General'],
              [33, u'ID: EK_KJ_CDM_UE4183'],
              [34, u'ID: EK_KJ_PA_CDM 4781'],
              [35, u'ID: EK_KJ_PA_CDM 4496'],
              [36, u'ID: EK_KJ_PA_CDM 2573'],
              [37, u'ID: EK_KJ_PA_CDM 5060'],
              [38, u'ID: EK_KJ_PA_CDM 5098'],
              [39, u'ID: EK_KJ_PA_CDM 1475'],
              [40, u'D: EK_KJ_PA_CDM 2677'],
              [41, None],
              [42, u'Zedis DTC Fault triggering information']],
 u'HSK': [[1, u'ID: EK_KJ_PA_CDM 5020'],
          [2, u'ID: EK_KJ_PA_CDM 5022'],
          [3, u'ID: EK_KJ_PA_CDM 5023'],
          [4, u'ID: EK_KJ_PA_CDM 5024'],
          [5, u'ID: EK_KJ_PA_CDM 5033'],
          [6, u'ID: EK_KJ_PA_CDM 5032'],
          [7, u'ID: EK_KJ_PA_CDM 5019'],
          [8, u'ID: EK_KJ_PA_CDM 5027'],
          [9, u'ID: EK_KJ_PA_CDM 5028'],
          [10, u'ID: EK_KJ_PA_CDM 5029'],
          [12, u'ID: EK_KJ_PA_CDM 5031'],
          [13, u'ID: EK_KJ_PA_CDM 4992'],
          [14, u'ID: EK_KJ_PA_CDM 4991'],
          [15, u'ID: EK_KJ_PA_CDM 4989'],
          [16, u'ID: EK_KJ_PA_CDM 4983'],
          [17, u'ID: EK_KJ_PA_CDM 4996'],
          [18, u'ID: EK_KJ_PA_CDM 4997'],
          [21, None],
          [22, None],
          [23, None],
          [24, None],
          [25, u'EK_KJ_PA_CDM 5098'],
          [26, u'EK_KJ_PA_CDM 5098']],
 u'KFS': [[1, u'ID: EK_KJ_PA_CDM 3481'],
          [2, u'ID: EK_KJ_PA_CDM 3482'],
          [3, u'ID: EK_KJ_PA_CDM 4532'],
          [4, u'ID: EK_KJ_PA_CDM 3502'],
          [7, u'ID: EK_KJ_PA_CDM 3520'],
          [8, u'ID: EK_KJ_PA_CDM 3507'],
          [13, u'ID: EK_KJ_PA_CDM 3525'],
          [14, u'ID: EK_KJ_PA_CDM 3484'],
          [15, u'ID: EK_KJ_PA_CDM 3486'],
          [16, u'ID: EK_KJ_PA_CDM 3488'],
          [17, u'ID: EK_KJ_PA_CDM 3489'],
          [19, u'ID: EK_KJ_PA_CDM 4877'],
          [20, u'ID: EK_KJ_PA_CDM 4329'],
          [21, u'ID: EK_KJ_PA_CDM 4330'],
          [23, u'ID: EK_KJ_PA_CDM 5014'],
          [24, u'ID: EK_KJ_PA_CDM 3496'],
          [25, u'ID: EK_KJ_PA_CDM 3499'],
          [30, u'ID: EK_KJ_PA_CDM 3513'],
          [31, u'ID: EK_KJ_PA_CDM 3515'],
          [33, u'ID: EK_KJ_PA_CDM 3518'],
          [34, u'ID: EK_KJ_PA_CDM 3521'],
          [35, u'ID: EK_KJ_PA_CDM 3523'],
          [36, u'ID: EK_KJ_PA_CDM 3524'],
          [37, u'ID: EK_KJ_PA_CDM 3525'],
          [38, u'ID: EK_KJ_PA_CDM 3527'],
          [39, u'ID: EK_KJ_PA_CDM 3528'],
          [40, u'ID: EK_KJ_PA_CDM 3530'],
          [41, u'ID: EK_KJ_PA_CDM 3531'],
          [44, u'ID: EK_KJ_PA_CDM 3535'],
          [47, u'ID: EK_KJ_PA_CDM 3543'],
          [48, u'ID: EK_KJ_PA_CDM 5074'],
          [50, u'ID: EK_KJ_PA_CDM 5076'],
          [56, None],
          [57, None],
          [58, None],
          [59, None],
          [60, None],
          [61, None],
          [62, None],
          [63, None],
          [64, None],
          [65,
           u'20151902_Spezifikation_KFS_RR11_en\nID:1.1.2.1.1_3\n20151902_Spezifikation_KFS_RR11_en\nID:1.1.2.1.1_4']],
 u'Mechanical': [[1, u'ID: EK_KJ_PA_CDM 4634'],
                 [2, u'ID: EK_KJ_PA_CDM 4804'],
                 [3, u'ID: EK_KJ_PA_CDM 1520'],
                 [4, u'ID: EK_KJ_PA_CDM 1522'],
                 [5, u'ID: EK_KJ_PA_CDM 4247']],
 u'Volume': [[1, u'20160316_Volume_CDM_DS_CR_v1_7_Erl\xe4uterung'],
             [3, u'20160316_Volume_CDM_DS_CR_v1_7_Erl\xe4uterung']],
 u'ZuZi': [[1, u' EK_KJ_CDM_UE902'],
           [2, u'EK_KJ_CDM_UE911 '],
           [3, u'EK_KJ_CDM_UE4170'],
           [4, u' EK_KJ_CDM_UE4171 '],
           [5, u' EK_KJ_PA_CDM 1251'],
           [6, u'EK_KJ_PA_CDM 1257 '],
           [7, u' EK_KJ_PA_CDM 1309 '],
           [8, u' EK_KJ_PA_CDM 1310 '],
           [9, u'EK_KJ_PA_CDM 1342 '],
           [10, u'EK_KJ_PA_CDM 4722'],
           [11, u' EK_KJ_PA_CDM 3745 '],
           [12, u' EK_KJ_PA_CDM 3746 '],
           [13, u' EK_KJ_PA_CDM 1641 '],
           [14, u' EK_KJ_PA_CDM 1642'],
           [15, u' EK_KJ_PA_CDM 5095'],
           [16, u'EK_KJ_PA_CDM 4536 '],
           [17, u'EK_KJ_PA_CDM 1653 '],
           [18, u'EK_KJ_PA_CDM 4761 '],
           [19, u' EK_KJ_PA_CDM 4755  '],
           [20, u'EK_KJ_PA_CDM 2586 '],
           [21, u'ID: EK_KJ_PA_CDM 2587'],
           [22, u' EK_KJ_PA_CDM 2665 '],
           [23, u' EK_KJ_PA_CDM 3037 '],
           [24, u'EK_KJ_PA_CDM 3040'],
           [25, u'EK_KJ_PA_CDM 3041 '],
           [28, u'EK_KJ_PA_CDM 3139'],
           [29, u' EK_KJ_PA_CDM 4143'],
           [30, u' EK_KJ_PA_CDM 3140 '],
           [31, u' EK_KJ_PA_CDM 4356 '],
           [32, u' EK_KJ_PA_CDM 4544'],
           [33, u' EK_KJ_PA_CDM 4545'],
           [34, u'EK_KJ_PA_CDM 4320'],
           [35, u'EK_KJ_PA_CDM 4875 '],
           [36, u' EK_KJ_PA_CDM 3145 '],
           [37, u' EK_KJ_PA_CDM 3146'],
           [38,
            u'EK_KJ_PA_CDM 3147 \nEK_KJ_PA_CDM 3148\nEK_KJ_PA_CDM 3149\nEK_KJ_PA_CDM 3150\nEK_KJ_PA_CDM 3151\n'],
           [41, u'EK_KJ_PA_CDM 5080 '],
           [42,
            u'EK_KJ_PA_CDM 5081 \n EK_KJ_PA_CDM 5082 \n EK_KJ_PA_CDM 5085'],
           [43, u' EK_KJ_PA_CDM 5083 '],
           [44, u'EK_KJ_PA_CDM 4323 '],
           [45, u'EK_KJ_PA_CDM 3155 '],
           [46, u' EK_KJ_PA_CDM 3157 '],
           [47, u'EK_KJ_PA_CDM 3156 '],
           [48, u' EK_KJ_PA_CDM 3159 '],
           [49, u'EK_KJ_PA_CDM 3160 '],
           [50, u' EK_KJ_PA_CDM 3162 '],
           [51, u'EK_KJ_PA_CDM 3163'],
           [52, u' EK_KJ_PA_CDM 3166 '],
           [53, u' EK_KJ_PA_CDM 3167'],
           [55, u' EK_KJ_PA_CDM 3170'],
           [58, u'EK_KJ_PA_CDM 3174 '],
           [59, u'EK_KJ_PA_CDM 3175,3176,3177,  5078'],
           [60, u'EK_KJ_PA_CDM 3178,3179,3180,3181,3182,3183'],
           [64, u' EK_KJ_PA_CDM 3194, 3195'],
           [65, u' EK_KJ_PA_CDM 3197'],
           [66, u' EK_KJ_PA_CDM 3199'],
           [67, u'EK_KJ_PA_CDM 3201 , 3202'],
           [68, u' EK_KJ_PA_CDM 3203'],
           [69, u'EK_KJ_PA_CDM 3204'],
           [70, u' EK_KJ_PA_CDM 3205 '],
           [71, u' EK_KJ_PA_CDM 3206'],
           [72, u' EK_KJ_PA_CDM 3207'],
           [73, u' EK_KJ_PA_CDM 3208 '],
           [74, u' EK_KJ_PA_CDM 3209 '],
           [75, u' EK_KJ_PA_CDM 3210 '],
           [76, u' EK_KJ_PA_CDM 3211 '],
           [77, u'EK_KJ_PA_CDM 3212 '],
           [78, u' EK_KJ_PA_CDM 3213 '],
           [79, u' EK_KJ_PA_CDM 3214'],
           [80, u' EK_KJ_PA_CDM 3216 '],
           [81, u' EK_KJ_PA_CDM 3217'],
           [82, u' EK_KJ_PA_CDM 3218 '],
           [83, u'EK_KJ_PA_CDM 3219'],
           [84, u' EK_KJ_PA_CDM 3220 '],
           [85, u' EK_KJ_PA_CDM 3222 '],
           [86, u' EK_KJ_PA_CDM 3223 '],
           [87, u' EK_KJ_PA_CDM 3224 '],
           [88, u' EK_KJ_PA_CDM 3225'],
           [89, u' EK_KJ_PA_CDM 3226 '],
           [90, u'EK_KJ_PA_CDM 3229 '],
           [91, u' EK_KJ_PA_CDM 3230 '],
           [92, u'EK_KJ_PA_CDM 3234'],
           [93, u'EK_KJ_PA_CDM 3235 '],
           [95, u'EK_KJ_PA_CDM 3277 '],
           [96, u'EK_KJ_PA_CDM 3279 '],
           [97, u' EK_KJ_PA_CDM 3608'],
           [98, u' EK_KJ_PA_CDM 5046 '],
           [99, u'EK_KJ_PA_CDM 5047 '],
           [100, u'EK_KJ_PA_CDM 5048'],
           [101, u'EK_KJ_PA_CDM 5049'],
           [102, u'EK_KJ_PA_CDM 5050'],
           [103, u'EK_KJ_PA_CDM 5051'],
           [104, u'EK_KJ_PA_CDM 5052'],
           [105, u'EK_KJ_PA_CDM 5053'],
           [106, u'EK_KJ_PA_CDM 5054'],
           [107, u'EK_KJ_PA_CDM 5055'],
           [108, u' EK_KJ_PA_CDM 5046 '],
           [109, u'RR4 Zuziehhilfe - dynamische Blockiererkennung '],
           [110, u'EK_KJ_PA_CDM 3608'],
           [112, None],
           [113, None],
           [116, None],
           [117, None],
           [118, None],
           [119, u'EK_KJ_PA_CDM 3234'],
           [120, u'EK_KJ_PA_CDM 4508'],
           [123, u'LH_10143611_04_50_en'],
           [124, None],
           [125, None],
           [126, None],
           [130, u'ID: EK_KJ_PA_CDM 3192'],
           [135, u'Single CDM - RR31'],
           [137, u'Wakable ZuZi buttons'],
           [138, u'Wakable ZuZi buttons\nID: EK_KJ_PA_CDM 3152']]}