reading logs\TS1_1.hex
reading logs\TS1_1.asc
Location		TS1_1.hex		TS1_1.asc		Matches?
Header 1		06CCB803		06CCB803		True
Record 1		864DA075		864DA075		True
Header 2		06CCB803		06CCB803		True
Record 2		494EBCFF		494EBCFF		True
Header 3		06CCB803		06CCB803		True
Record 3		10B2E2A0		10B2E2A0		True
Header 4		06CCB803		06CCB803		True
Record 4		5BB1B4A0		5BB1B4A0		True
Header 5		06CCB803		06CCB803		True
Record 5		CC91BB27		CC91BB27		True
Header 6		06CCB803		06CCB803		True
Record 6		F291B5A6		F291B5A6		True
Header 7		06CCB803		06CCB803		True
Record 7		0191ACC6		0191ACC6		True
Header 8		06CCB803		06CCB803		True
Record 8		34D6F57B		34D6F57B		True
Header 9		06CCB803		06CCB803		True
Record 9		164AD9BE		164AD9BE		True
Header 10		06CCB803		06CCB803		True
Record 10		77A1A6B9		77A1A6B9		True
Header 11		06CCB803		06CCB803		True
Record 11		A9C7CF33		A9C7CF33		True
Header 12		06CCB803		06CCB803		True
Record 12		2F4378A5		2F4378A5		True
Header 13		06CCB803		06CCB803		True
Record 13		EBED8786		EBED8786		True
Header 14		06CCB803		06CCB803		True
Record 14		92924030		92924030		True
Header 15		06CCB803		06CCB803		True
Record 15		42967576		42967576		True
Header 16		06CCB803		06CCB803		True
Record 16		9924BE8D		9924BE8D		True
Header 17		06CCB803		06CCB803		True
Record 17		037D77C6		037D77C6		True
Header 18		06CCB803		06CCB803		True
Record 18		29026024		29026024		True
Header 19		06CCB803		06CCB803		True
Record 19		D40DD430		D40DD430		True
Header 20		06CCB803		06CCB803		True
Record 20		203FE2FB		203FE2FB		True

reading logs\TS1_2_1-9.hex
reading logs\TS1_2_1-9.asc
Location		TS1_2_1-9.hex		TS1_2_1-9.asc		Matches?
Header 1		06CCB803		06CCB803		True
Record 1		D931C054		D931C054		True
Header 2		06CCB803		06CCB803		True
Record 2		09E38A25		09E38A25		True
Header 3		06CCB803		06CCB803		True
Record 3		BA122A88		BA122A88		True
Header 4		06CCB803		06CCB803		True
Record 4		CE8B6E77		CE8B6E77		True
Header 5		06CCB803		06CCB803		True
Record 5		06E50C16		06E50C16		True
Header 6		06CCB803		06CCB803		True
Record 6		291FB0CB		291FB0CB		True
Header 7		06CCB803		06CCB803		True
Record 7		64F24B12		64F24B12		True
Header 8		06CCB803		06CCB803		True
Record 8		7A8AB980		7A8AB980		True
Header 9		06CCB803		06CCB803		True
Record 9		A8210FB7		A8210FB7		True
Header 10		06CCB803		06CCB803		True
Record 10		32541337		F63DEECF		False

reading logs\TS1_2_10-20.hex
reading logs\TS1_2_10-20.asc
Location		TS1_2_10-20.hex		TS1_2_10-20.asc		Matches?
Header 1		06CCB803		06CCB803		True
Record 1		1CC7401B		1CC7401B		True
Header 2		06CCB803		06CCB803		True
Record 2		9E0E59C4		9E0E59C4		True
Header 3		06CCB803		06CCB803		True
Record 3		8EBDCBA4		8EBDCBA4		True
Header 4		06CCB803		06CCB803		True
Record 4		DEFE2BE2		DEFE2BE2		True
Header 5		06CCB803		06CCB803		True
Record 5		268227AC		268227AC		True
Header 6		06CCB803		06CCB803		True
Record 6		E2A9340E		E2A9340E		True
Header 7		06CCB803		06CCB803		True
Record 7		452A8FFE		452A8FFE		True
Header 8		06CCB803		06CCB803		True
Record 8		10FF9436		10FF9436		True
Header 9		06CCB803		06CCB803		True
Record 9		416B4BF6		416B4BF6		True
Header 10		06CCB803		06CCB803		True
Record 10		686958AB		686958AB		True
Header 11		06CCB803		06CCB803		True
Record 11		97CE528B		97CE528B		True

reading logs\TS1_3_1-9.hex
reading logs\TS1_3_1-9.asc
Location		TS1_3_1-9.hex		TS1_3_1-9.asc		Matches?
Header 1		06CCB803		06CCB803		True
Record 1		524AF801		524AF801		True
Header 2		06CCB803		06CCB803		True
Record 2		C0798CE3		C0798CE3		True
Header 3		06CCB803		06CCB803		True
Record 3		14018F71		14018F71		True
Header 4		06CCB803		06CCB803		True
Record 4		B03BA876		B03BA876		True
Header 5		06CCB803		06CCB803		True
Record 5		1BD67353		1BD67353		True
Header 6		06CCB803		06CCB803		True
Record 6		1C6FB657		3D979367		False
Header 7		06CCB803		06CCB803		True
Record 7		AF3CDF8F		AF3CDF8F		True
Header 8		06CCB803		06CCB803		True
Record 8		7C20FA47		7C20FA47		True
Header 9		06CCB803		06CCB803		True
Record 9		EB5DFF33		170B2EDA		False
Header 10		06CCB803		06CCB803		True
Record 10		D1E215D8		D1E215D8		True
Header 11		06CCB803		06CCB803		True
Record 11		E753E766		E753E766		True
Header 12		06CCB803		06CCB803		True
Record 12		FBF046C0		72D83A64		False
Header 13		06CCB803		06CCB803		True
Record 13		FC9FED95		EA49D008		False

reading logs\TS1_3_10-15.hex
reading logs\TS1_3_10-15.asc
Location		TS1_3_10-15.hex		TS1_3_10-15.asc		Matches?
Header 1		06CCB803		06CCB803		True
Record 1		8639553D		8639553D		True
Header 2		06CCB803		06CCB803		True
Record 2		7AF8C4C2		7AF8C4C2		True
Header 3		06CCB803		06CCB803		True
Record 3		A80C6A04		A80C6A04		True
Header 4		06CCB803		06CCB803		True
Record 4		20AF579C		20AF579C		True
Header 5		06CCB803		06CCB803		True
Record 5		37366D71		37366D71		True
Header 6		06CCB803		06CCB803		True
Record 6		439251F5		439251F5		True
Header 7		06CCB803		06CCB803		True
Record 7		3ED92098		439251F5		False

reading logs\TS1_3_16-19.hex
reading logs\TS1_3_16-19.asc
Location		TS1_3_16-19.hex		TS1_3_16-19.asc		Matches?
Header 1		06CCB803		06CCB803		True
Record 1		147B3397		147B3397		True
Header 2		06CCB803		06CCB803		True
Record 2		3C4D2175		3C4D2175		True
Header 3		06CCB803		06CCB803		True
Record 3		BE6B1FB6		BE6B1FB6		True
Header 4		06CCB803		06CCB803		True
Record 4		7D58DA11		7D58DA11		True
Header 5		06CCB803		06CCB803		True
Record 5		C1133253		7D58DA11		False

reading logs\TS1_3_20.hex
reading logs\TS1_3_20.asc
Location		TS1_3_20.hex		TS1_3_20.asc		Matches?
Header 1		06CCB803		06CCB803		True
Record 1		0A93BCDF		0A93BCDF		True

reading logs\TS4_1.hex
reading logs\TS4_1.asc
Location		TS4_1.hex		TS4_1.asc		Matches?
Header 1		06CCB803		06CCB803		True
Record 1		B7D5696B		B7D5696B		True
Header 2		06CCB803		06CCB803		True
Record 2		6854521D		6854521D		True
Header 3		06CCB803		06CCB803		True
Record 3		415432A5		415432A5		True
Header 4		06CCB803		06CCB803		True
Record 4		63B52E6B		63B52E6B		True
Header 5		06CCB803		06CCB803		True
Record 5		4ED1F9A0		4ED1F9A0		True
Header 6		06CCB803		06CCB803		True
Record 6		05D139A4		05D139A4		True
Header 7		06CCB803		06CCB803		True
Record 7		55B444BE		55B444BE		True
Header 8		06CCB803		06CCB803		True
Record 8		4CDC27D3		4CDC27D3		True

reading logs\TS4_2_1-4.hex
reading logs\TS4_2_1-4.asc
Location		TS4_2_1-4.hex		TS4_2_1-4.asc		Matches?
Header 1		06CCB803		06CCB803		True
Record 1		7DEE2B83		7DEE2B83		True
Header 2		06CCB803		06CCB803		True
Record 2		4FB55881		4FB55881		True
Header 3		06CCB803		06CCB803		True
Record 3		A3023192		A3023192		True
Header 4		06CCB803		06CCB803		True
Record 4		593BB5A7		593BB5A7		True

reading logs\TS4_2_5-8.hex
reading logs\TS4_2_5-8.asc
Location		TS4_2_5-8.hex		TS4_2_5-8.asc		Matches?
Header 1		06CCB803		06CCB803		True
Record 1		D58A8561		D58A8561		True
Header 2		06CCB803		06CCB803		True
Record 2		BD18B14C		BD18B14C		True
Header 3		06CCB803		06CCB803		True
Record 3		27D57039		27D57039		True
Header 4		06CCB803		06CCB803		True
Record 4		5DF54064		27D57039		False
Header 5		06CCB803		06CCB803		True
Record 5		B3EF0BC5		24D4CFF8		False
Header 6		06CCB803		06CCB803		True
Record 6		83E4A30A		83E4A30A		True

reading logs\TS4_3_1-4.hex
reading logs\TS4_3_1-4.asc
Location		TS4_3_1-4.hex		TS4_3_1-4.asc		Matches?
Header 1		06CCB803		06CCB803		True
Record 1		6F26DC39		6F26DC39		True
Header 2		06CCB803		06CCB803		True
Record 2		BE4CCE15		BE4CCE15		True
Header 3		06CCB803		06CCB803		True
Record 3		E0278828		E0278828		True
Header 4		06CCB803		06CCB803		True
Record 4		BF7836A4		E1CA7B33		False
Header 5		06CCB803		06CCB803		True
Record 5		BC263C80		BC263C80		True

reading logs\TS4_3_5-8.hex
reading logs\TS4_3_5-8.asc
Location		TS4_3_5-8.hex		TS4_3_5-8.asc		Matches?
Header 1		06CCB803		06CCB803		True
Record 1		43CCDFC0		43CCDFC0		True
Header 2		06CCB803		06CCB803		True
Record 2		2D9AFEF6		2D9AFEF6		True
Header 3		06CCB803		06CCB803		True
Record 3		61AA6C45		61AA6C45		True
Header 4		06CCB803		06CCB803		True
Record 4		875EE83B		0A8D6613		False
Header 5		06CCB803		06CCB803		True
Record 5		9409922B		27DD2E30		False
Header 6		06CCB803		06CCB803		True
Record 6		E34A280B		A618BB22		False
Header 7		06CCB803		06CCB803		True
Record 7		F1EB13E5		F1EB13E5		True

All match: False