FTC_MESSAGE_101	max: 0.00984	average: 0.00984	difference 0.00000	
FTC_MESSAGE_102	max: 0.00983	average: 0.00984	difference -0.00000	
FTC_MESSAGE_103	max: 0.50163	average: 0.50163	difference 0.00000	
FTC_MESSAGE_104	max: 0.50164	average: 0.50164	difference 0.00000	
FTC_MESSAGE_105	max: 0.50165	average: 0.50165	difference 0.00000	
FTC_MESSAGE_106	max: 0.50164	average: 0.50164	difference 0.00000	
FTC_MESSAGE_107	max: 0.00983	average: 0.00983	difference -0.00000	
FTC_MESSAGE_108	max: 0.00983	average: 0.00983	difference -0.00000	
FTC_MESSAGE_109	max: 0.50163	average: 0.50163	difference 0.00000	
FTC_MESSAGE_10A	max: 0.50164	average: 0.50164	difference 0.00000	
FTC_MESSAGE_10B	max: 0.02006	average: 0.02006	difference -0.00000	
FTC_MESSAGE_10C	max: 0.00983	average: 0.00983	difference -0.00000	
FTC_MESSAGE_10D	max: 0.00983	average: 0.00984	difference -0.00000	
FTC_MESSAGE_10E	max: 0.10033	average: 0.10033	difference 0.00000	
FTC_MESSAGE_10F	max: 0.00804	average: 0.00804	difference -0.00000	
FTC_MESSAGE_110	max: 0.50165	average: 0.50165	difference 0.00000	
FTC_MESSAGE_111	max: 0.10033	average: 0.10033	difference 0.00000	
FTC_MESSAGE_112	max: 0.00803	average: 0.00803	difference -0.00000	
FTC_MESSAGE_113	max: 0.50163	average: 0.50163	difference 0.00000	
FTC_MESSAGE_114	max: 0.00803	average: 0.00803	difference -0.00000	
FTC_MESSAGE_115	max: 0.50164	average: 0.50164	difference 0.00000	
FTC_MESSAGE_116	max: 0.01404	average: 0.01404	difference -0.00000	
FTC_MESSAGE_117	max: 0.10033	average: 0.10033	difference 0.00000	
FTC_MESSAGE_118	max: 0.10033	average: 0.10033	difference 0.00000	
FTC_MESSAGE_119	max: 0.50163	average: 0.50163	difference 0.00000	
FTC_MESSAGE_11A	max: 0.50164	average: 0.50164	difference 0.00000	
