FTC_MESSAGE_101	max: 0.16503	average: 0.01003	difference 0.15500	<-------
FTC_MESSAGE_102	max: 0.16503	average: 0.01003	difference 0.15500	<-------
FTC_MESSAGE_103	max: 0.50182	average: 0.50173	difference 0.00009	
FTC_MESSAGE_104	max: 0.50182	average: 0.50173	difference 0.00009	
FTC_MESSAGE_105	max: 0.50182	average: 0.50173	difference 0.00009	
FTC_MESSAGE_106	max: 0.50182	average: 0.50173	difference 0.00009	
FTC_MESSAGE_107	max: 0.16527	average: 0.01003	difference 0.15524	<-------
FTC_MESSAGE_108	max: 0.16527	average: 0.01003	difference 0.15524	<-------
FTC_MESSAGE_109	max: 0.50180	average: 0.50173	difference 0.00007	
FTC_MESSAGE_10A	max: 0.50180	average: 0.50173	difference 0.00007	
FTC_MESSAGE_10B	max: 0.16577	average: 0.02007	difference 0.14570	<-------
FTC_MESSAGE_10C	max: 0.16577	average: 0.01003	difference 0.15574	<-------
FTC_MESSAGE_10D	max: 0.16577	average: 0.01003	difference 0.15574	<-------
FTC_MESSAGE_10E	max: 0.16502	average: 0.10035	difference 0.06467	<-------
FTC_MESSAGE_10F	max: 0.16502	average: 0.01003	difference 0.15498	<-------
FTC_MESSAGE_110	max: 0.50181	average: 0.50173	difference 0.00008	
FTC_MESSAGE_111	max: 0.16527	average: 0.10035	difference 0.06493	<-------
FTC_MESSAGE_112	max: 0.16527	average: 0.01003	difference 0.15524	<-------
FTC_MESSAGE_113	max: 0.50181	average: 0.50173	difference 0.00008	
FTC_MESSAGE_114	max: 0.16552	average: 0.01003	difference 0.15549	<-------
FTC_MESSAGE_115	max: 0.50182	average: 0.50173	difference 0.00010	
FTC_MESSAGE_116	max: 0.16508	average: 0.01003	difference 0.15504	<-------
FTC_MESSAGE_117	max: 0.16508	average: 0.10035	difference 0.06473	<-------
FTC_MESSAGE_118	max: 0.16508	average: 0.10035	difference 0.06473	<-------
FTC_MESSAGE_119	max: 0.50182	average: 0.50173	difference 0.00009	
FTC_MESSAGE_11A	max: 0.50182	average: 0.50173	difference 0.00009	
