FTC_MESSAGE_101	max: 0.01025	average: 0.01003	difference 0.00022	
FTC_MESSAGE_102	max: 0.01025	average: 0.01003	difference 0.00022	
FTC_MESSAGE_103	max: 0.50163	average: 0.50162	difference 0.00001	
FTC_MESSAGE_104	max: 0.50163	average: 0.50162	difference 0.00001	
FTC_MESSAGE_105	max: 0.50163	average: 0.50162	difference 0.00001	
FTC_MESSAGE_106	max: 0.50163	average: 0.50162	difference 0.00001	
FTC_MESSAGE_107	max: 0.01025	average: 0.01003	difference 0.00022	
FTC_MESSAGE_108	max: 0.01025	average: 0.01003	difference 0.00022	
FTC_MESSAGE_109	max: 0.50163	average: 0.50162	difference 0.00001	
FTC_MESSAGE_10A	max: 0.50163	average: 0.50162	difference 0.00002	
FTC_MESSAGE_10B	max: 0.03210	average: 0.01977	difference 0.01232	
FTC_MESSAGE_10C	max: 0.01025	average: 0.01003	difference 0.00022	
FTC_MESSAGE_10D	max: 0.01026	average: 0.01003	difference 0.00023	
FTC_MESSAGE_10E	max: 0.11237	average: 0.10007	difference 0.01230	
FTC_MESSAGE_10F	max: 0.02607	average: 0.00954	difference 0.01653	
FTC_MESSAGE_110	max: 0.50163	average: 0.50162	difference 0.00001	
FTC_MESSAGE_111	max: 0.11839	average: 0.09973	difference 0.01865	
FTC_MESSAGE_112	max: 0.03412	average: 0.01081	difference 0.02331	<-------
FTC_MESSAGE_113	max: 0.50163	average: 0.50162	difference 0.00001	
FTC_MESSAGE_114	max: 0.04013	average: 0.01128	difference 0.02885	<-------
FTC_MESSAGE_115	max: 0.50163	average: 0.50162	difference 0.00001	
FTC_MESSAGE_116	max: 0.05017	average: 0.02049	difference 0.02968	<-------
FTC_MESSAGE_117	max: 0.13243	average: 0.09838	difference 0.03405	<-------
FTC_MESSAGE_118	max: 0.14046	average: 0.09725	difference 0.04321	<-------
FTC_MESSAGE_119	max: 0.50163	average: 0.50162	difference 0.00001	
FTC_MESSAGE_11A	max: 0.50163	average: 0.50162	difference 0.00001	
